M48
; DRILL file {KiCad 6.0.6-3a73a75311~116~ubuntu21.10.1} date Sun Jul  7 16:24:00 2024
; FORMAT={-:-/ absolute / inch / decimal}
; #@! TF.CreationDate,2024-07-07T16:24:00+10:00
; #@! TF.GenerationSoftware,Kicad,Pcbnew,6.0.6-3a73a75311~116~ubuntu21.10.1
; #@! TF.FileFunction,NonPlated,1,2,NPTH
FMAT,2
INCH
%
G90
G05
T0
M30
