(footprint "DIP-32__600" (version 20211014) (generator pcbnew)
  (layer "F.Cu")
  (tedit 56170CB1)
  (descr "32 pins DIL package, round pads")
  (tags "DIL")
  (attr through_hole)
  (fp_text reference "REF**" (at -25.59558 -7.84352) (layer "F.SilkS")
    (effects (font (size 1.778 1.778) (thickness 0.3048)))
    (tstamp a0dd39f5-3336-4142-a2f5-4517138b4460)
  )
  (fp_text value "628128" (at 0.2032 10.00252) (layer "F.SilkS")
    (effects (font (size 1.778 1.778) (thickness 0.3048)))
    (tstamp 89eee964-f956-4858-b6a0-f1f087492cff)
  )
  (fp_line (start -20.32 -1.27) (end -21.59 -1.27) (layer "F.SilkS") (width 0.381) (tstamp 1e1ba410-0f9c-4ec3-96f4-b6542f1c3d0c))
  (fp_line (start -21.59 -6.35) (end 21.59 -6.35) (layer "F.SilkS") (width 0.381) (tstamp 485d5eb9-e9ab-46f7-bfa8-222328392ddc))
  (fp_line (start -20.32 1.27) (end -20.32 -1.27) (layer "F.SilkS") (width 0.381) (tstamp 7da3e55b-ea80-4215-9afb-184e889aa389))
  (fp_line (start -21.59 6.35) (end -21.59 -6.35) (layer "F.SilkS") (width 0.381) (tstamp acbd9908-66c9-4b89-be10-3943712b2607))
  (fp_line (start 21.59 -6.35) (end 21.59 6.35) (layer "F.SilkS") (width 0.381) (tstamp e3fca9ce-cfe2-4049-bf2f-b1eafa675950))
  (fp_line (start -21.59 1.27) (end -20.32 1.27) (layer "F.SilkS") (width 0.381) (tstamp e66bf8ed-5ceb-4529-9393-fdcb51503e38))
  (fp_line (start 21.59 6.35) (end -21.59 6.35) (layer "F.SilkS") (width 0.381) (tstamp fcf954f5-b8be-407f-a04c-b5c5b7572e8f))
  (pad "1" thru_hole rect (at -19.05 7.62) (size 1.397 1.397) (drill 0.8128) (layers *.Cu *.Mask "F.SilkS") (tstamp 0a71e6fb-6813-49dd-9dad-e3aafa0a4851))
  (pad "2" thru_hole circle (at -16.51 7.62) (size 1.397 1.397) (drill 0.8128) (layers *.Cu *.Mask "F.SilkS") (tstamp c4999ebd-63d9-4212-b196-381c9b4952e6))
  (pad "3" thru_hole circle (at -13.97 7.62) (size 1.397 1.397) (drill 0.8128) (layers *.Cu *.Mask "F.SilkS") (tstamp 7ab0f3f7-d352-428a-815d-cb0bde0837cf))
  (pad "4" thru_hole circle (at -11.43 7.62) (size 1.397 1.397) (drill 0.8128) (layers *.Cu *.Mask "F.SilkS") (tstamp b2c65a21-0126-4c90-8663-4128bb86341b))
  (pad "5" thru_hole circle (at -8.89 7.62) (size 1.397 1.397) (drill 0.8128) (layers *.Cu *.Mask "F.SilkS") (tstamp 574905a9-9004-473c-9ef7-7ed7b1c65ccd))
  (pad "6" thru_hole circle (at -6.35 7.62) (size 1.397 1.397) (drill 0.8128) (layers *.Cu *.Mask "F.SilkS") (tstamp 8e25473a-abc6-41d1-882b-0ba663e8b710))
  (pad "7" thru_hole circle (at -3.81 7.62) (size 1.397 1.397) (drill 0.8128) (layers *.Cu *.Mask "F.SilkS") (tstamp 9e837ebf-11a6-4ee8-9049-eac14b3faabc))
  (pad "8" thru_hole circle (at -1.27 7.62) (size 1.397 1.397) (drill 0.8128) (layers *.Cu *.Mask "F.SilkS") (tstamp ebc5517a-4677-48da-bd47-3c6e224bc1ca))
  (pad "9" thru_hole circle (at 1.27 7.62) (size 1.397 1.397) (drill 0.8128) (layers *.Cu *.Mask "F.SilkS") (tstamp 389fa9cf-59b0-4e15-88e7-5fc665115043))
  (pad "10" thru_hole circle (at 3.81 7.62) (size 1.397 1.397) (drill 0.8128) (layers *.Cu *.Mask "F.SilkS") (tstamp 6a1bb501-cf7d-4501-b593-270239384eb5))
  (pad "11" thru_hole circle (at 6.35 7.62) (size 1.397 1.397) (drill 0.8128) (layers *.Cu *.Mask "F.SilkS") (tstamp 91eb1042-61f4-431f-9937-a057d8319a4b))
  (pad "12" thru_hole circle (at 8.89 7.62) (size 1.397 1.397) (drill 0.8128) (layers *.Cu *.Mask "F.SilkS") (tstamp cdd1e6c8-cc25-4e56-b541-088fc1b4ba1c))
  (pad "13" thru_hole circle (at 11.43 7.62) (size 1.397 1.397) (drill 0.8128) (layers *.Cu *.Mask "F.SilkS") (tstamp 603391df-18da-4fb4-975c-052403ea1a69))
  (pad "14" thru_hole circle (at 13.97 7.62) (size 1.397 1.397) (drill 0.8128) (layers *.Cu *.Mask "F.SilkS") (tstamp 2c1015c7-68ae-4449-aca5-698aa3736e84))
  (pad "15" thru_hole circle (at 16.51 7.62) (size 1.397 1.397) (drill 0.8128) (layers *.Cu *.Mask "F.SilkS") (tstamp d369f923-a6fc-4d1a-b544-28909aa89d90))
  (pad "16" thru_hole circle (at 19.05 7.62) (size 1.397 1.397) (drill 0.8128) (layers *.Cu *.Mask "F.SilkS") (tstamp 02e2bdc3-37b8-4ee2-9af6-4521e6e6a0b2))
  (pad "17" thru_hole circle (at 19.05 -7.62) (size 1.397 1.397) (drill 0.8128) (layers *.Cu *.Mask "F.SilkS") (tstamp 8f673003-d66f-478d-8e64-081a469d1a69))
  (pad "18" thru_hole circle (at 16.51 -7.62) (size 1.397 1.397) (drill 0.8128) (layers *.Cu *.Mask "F.SilkS") (tstamp b9f16491-828a-4526-a5ac-8871a635e8e7))
  (pad "19" thru_hole circle (at 13.97 -7.62) (size 1.397 1.397) (drill 0.8128) (layers *.Cu *.Mask "F.SilkS") (tstamp 20ff0041-b246-454f-967e-bc3881f95aa6))
  (pad "20" thru_hole circle (at 11.43 -7.62) (size 1.397 1.397) (drill 0.8128) (layers *.Cu *.Mask "F.SilkS") (tstamp c4e2e71a-1f40-4383-ba5a-df4e7b499a71))
  (pad "21" thru_hole circle (at 8.89 -7.62) (size 1.397 1.397) (drill 0.8128) (layers *.Cu *.Mask "F.SilkS") (tstamp 229be9cf-2b35-4ced-95cb-7ad64219b08d))
  (pad "22" thru_hole circle (at 6.35 -7.62) (size 1.397 1.397) (drill 0.8128) (layers *.Cu *.Mask "F.SilkS") (tstamp a6039e0a-aca3-4849-b6f1-587c565dbdfb))
  (pad "23" thru_hole circle (at 3.81 -7.62) (size 1.397 1.397) (drill 0.8128) (layers *.Cu *.Mask "F.SilkS") (tstamp f6734e13-6d5e-4e19-96e9-45c8c83b58bf))
  (pad "24" thru_hole circle (at 1.27 -7.62) (size 1.397 1.397) (drill 0.8128) (layers *.Cu *.Mask "F.SilkS") (tstamp 92832e0b-6dc6-4b70-a7b1-671cf4287d1c))
  (pad "25" thru_hole circle (at -1.27 -7.62) (size 1.397 1.397) (drill 0.8128) (layers *.Cu *.Mask "F.SilkS") (tstamp 78ee8add-8e3a-4d7f-8c3d-3e2057bd5f6e))
  (pad "26" thru_hole circle (at -3.81 -7.62) (size 1.397 1.397) (drill 0.8128) (layers *.Cu *.Mask "F.SilkS") (tstamp 38965b28-288f-4646-8a45-94c04736b095))
  (pad "27" thru_hole circle (at -6.35 -7.62) (size 1.397 1.397) (drill 0.8128) (layers *.Cu *.Mask "F.SilkS") (tstamp 467e3d7f-4a6b-4c66-8edf-627934d83be0))
  (pad "28" thru_hole circle (at -8.89 -7.62) (size 1.397 1.397) (drill 0.8128) (layers *.Cu *.Mask "F.SilkS") (tstamp 20866a0b-2d0c-4250-a519-a2b7c920c57c))
  (pad "29" thru_hole circle (at -11.43 -7.62) (size 1.397 1.397) (drill 0.8128) (layers *.Cu *.Mask "F.SilkS") (tstamp 38122852-67fa-466c-b191-a52fcddb97e0))
  (pad "30" thru_hole circle (at -13.97 -7.62) (size 1.397 1.397) (drill 0.8128) (layers *.Cu *.Mask "F.SilkS") (tstamp 439f5c8a-4330-4f03-9ca4-191bde5764fe))
  (pad "31" thru_hole circle (at -16.51 -7.62) (size 1.397 1.397) (drill 0.8128) (layers *.Cu *.Mask "F.SilkS") (tstamp c34cbcab-d542-40bc-a0ef-15d2ce5a1f01))
  (pad "32" thru_hole circle (at -19.05 -7.62) (size 1.397 1.397) (drill 0.8128) (layers *.Cu *.Mask "F.SilkS") (tstamp 99a25507-c8a8-4eaa-ac35-e275cc814041))
  (model "dil/dil_32-w600.wrl"
    (offset (xyz 0 0 0))
    (scale (xyz 1 1 1))
    (rotate (xyz 0 0 0))
  )
)
