(footprint "pin_array_4x2" (version 20211014) (generator pcbnew)
  (layer "F.Cu")
  (tedit 56170BAA)
  (descr "Double rangee de contacts 2 x 4 pins")
  (tags "CONN")
  (attr through_hole)
  (fp_text reference "REF**" (at -4.9403 4.0005 -90) (layer "F.SilkS")
    (effects (font (size 1.016 1.016) (thickness 0.2032)))
    (tstamp 7c352635-0431-4009-be03-86b554c3b1da)
  )
  (fp_text value "CONN_4X2" (at 0 3.81) (layer "F.SilkS") hide
    (effects (font (size 1.016 1.016) (thickness 0.2032)))
    (tstamp 4b9fffe9-6030-4ad5-973e-682a246978aa)
  )
  (fp_line (start 5.08 -2.54) (end 5.08 2.54) (layer "F.SilkS") (width 0.3048) (tstamp 1a44be7b-72ba-41f9-b911-12ba0ebe5f78))
  (fp_line (start 5.08 2.54) (end -5.08 2.54) (layer "F.SilkS") (width 0.3048) (tstamp 9b81bb5c-b758-4668-91fd-e8cce07c89e0))
  (fp_line (start -5.08 -2.54) (end 5.08 -2.54) (layer "F.SilkS") (width 0.3048) (tstamp fc1abbeb-d3c5-4aa9-a117-3abddb408bf9))
  (fp_line (start -5.08 2.54) (end -5.08 -2.54) (layer "F.SilkS") (width 0.3048) (tstamp fcf3fce7-886a-40dc-b9e8-f99ef0e483c1))
  (pad "1" thru_hole rect (at -3.81 1.27) (size 1.524 1.524) (drill 1.016) (layers *.Cu *.Mask "F.SilkS") (tstamp 090e4350-128a-419f-acc8-48c33d105a5e))
  (pad "2" thru_hole circle (at -3.81 -1.27) (size 1.524 1.524) (drill 1.016) (layers *.Cu *.Mask "F.SilkS") (tstamp 7c1a24b6-dda9-4618-b3d9-38252c68cae8))
  (pad "3" thru_hole circle (at -1.27 1.27) (size 1.524 1.524) (drill 1.016) (layers *.Cu *.Mask "F.SilkS") (tstamp ea94beab-6c51-46be-b844-440397b7d2d7))
  (pad "4" thru_hole circle (at -1.27 -1.27) (size 1.524 1.524) (drill 1.016) (layers *.Cu *.Mask "F.SilkS") (tstamp d7dc7b99-185c-43e5-9a7f-2cc7a767fba6))
  (pad "5" thru_hole circle (at 1.27 1.27) (size 1.524 1.524) (drill 1.016) (layers *.Cu *.Mask "F.SilkS") (tstamp 3a519437-5fa4-4c3a-bdcd-401aa6c89c25))
  (pad "6" thru_hole circle (at 1.27 -1.27) (size 1.524 1.524) (drill 1.016) (layers *.Cu *.Mask "F.SilkS") (tstamp 27da7482-e531-4b8c-9148-b9b985ea512a))
  (pad "7" thru_hole circle (at 3.81 1.27) (size 1.524 1.524) (drill 1.016) (layers *.Cu *.Mask "F.SilkS") (tstamp 804ffcfb-c6bf-4e06-9895-6f73daacc90e))
  (pad "8" thru_hole circle (at 3.81 -1.27) (size 1.524 1.524) (drill 1.016) (layers *.Cu *.Mask "F.SilkS") (tstamp 6f2512a9-4c63-4400-85c5-649b28395580))
  (model "pin_array/pins_array_4x2.wrl"
    (offset (xyz 0 0 0))
    (scale (xyz 1 1 1))
    (rotate (xyz 0 0 0))
  )
)
