%!PS-Adobe-3.0
%%Creator: PCBNEW
%%CreationDate: Sat Apr  6 21:12:55 2024
%%Title: ()
%%Pages: 1
%%PageOrder: Ascend
%%BoundingBox: 0 0 596 842
%%DocumentMedia: A4 595 842 0 () ()
%%Orientation: Landscape
%%EndComments
%%BeginProlog
/line { newpath moveto lineto stroke } bind def
/cir0 { newpath 0 360 arc stroke } bind def
/cir1 { newpath 0 360 arc gsave fill grestore stroke } bind def
/cir2 { newpath 0 360 arc gsave fill grestore stroke } bind def
/arc0 { newpath arc stroke } bind def
/arc1 { newpath 4 index 4 index moveto arc closepath gsave fill
    grestore stroke } bind def
/arc2 { newpath 4 index 4 index moveto arc closepath gsave fill
    grestore stroke } bind def
/poly0 { stroke } bind def
/poly1 { closepath gsave fill grestore stroke } bind def
/poly2 { closepath gsave fill grestore stroke } bind def
/rect0 { rectstroke } bind def
/rect1 { rectfill } bind def
/rect2 { rectfill } bind def
/linemode0 { 0 setlinecap 0 setlinejoin 0 setlinewidth } bind def
/linemode1 { 1 setlinecap 1 setlinejoin } bind def
/dashedline { [200] 100 setdash } bind def
/solidline { [] 0 setdash } bind def
/phantomshow { moveto
    /KicadFont findfont 0.000001 scalefont setfont
    show } bind def
/textshow { gsave
    findfont exch scalefont setfont concat 1 scale 0 0 moveto show
    } bind def
/reencodefont {
  findfont dup length dict begin
  { 1 index /FID ne
    { def }
    { pop pop } ifelse
  } forall
  /Encoding ISOLatin1Encoding def
  currentdict
  end } bind def
/KicadFont /Helvetica reencodefont definefont pop
/KicadFont-Bold /Helvetica-Bold reencodefont definefont pop
/KicadFont-Oblique /Helvetica-Oblique reencodefont definefont pop
/KicadFont-BoldOblique /Helvetica-BoldOblique reencodefont definefont pop
%%EndProlog
%%Page: 1 1
%%BeginPageSetup
gsave
0.0072 0.0072 scale
linemode1
82680 0 translate 90 rotate
85.0935 setlinewidth
%%EndPageSetup
0 0 0 setrgbcolor
42.5467 setlinewidth
newpath
87804.2 52301.5 moveto
87804.2 35912.7 lineto
stroke
0 0 0 setrgbcolor
newpath
73698.6 71942.1 moveto
80677.2 71942.1 lineto
stroke
0 0 0 setrgbcolor
newpath
82061.2 72653.8 moveto
88226.7 72653.8 lineto
stroke
0 0 0 setrgbcolor
newpath
72422.2 79413.8 moveto
72422.2 73218.5 lineto
stroke
0 0 0 setrgbcolor
newpath
88226.7 52301.5 moveto
87804.2 52301.5 lineto
stroke
0 0 0 setrgbcolor
newpath
89077.7 71802.9 moveto
89077.7 53152.4 lineto
stroke
0 0 0 setrgbcolor
newpath
28703.3 35061.8 moveto
86953.3 35061.8 lineto
stroke
0 0 0 setrgbcolor
newpath
27852.3 79839.3 moveto
27852.3 35912.7 lineto
stroke
0 0 0 setrgbcolor
newpath
28703.3 80690.2 moveto
71145.8 80690.2 lineto
stroke
0 0 0 setrgbcolor
86953.3 35912.7 850.925 -90.0007 -0 arc0
0 0 0 setrgbcolor
29291.3 70962.3 638.201 cir0
0 0 0 setrgbcolor
28904.4 50136.3 638.201 cir0
0 0 0 setrgbcolor
88226.7 53152.4 850.941 -89.9996 -0.000572954 arc0
0 0 0 setrgbcolor
28703.3 35912.7 850.935 -180 -89.9996 arc0
0 0 0 setrgbcolor
88226.7 71802.9 850.913 -0.00146103 89.9996 arc0
0 0 0 setrgbcolor
82061.2 71802.8 850.935 89.999 143.61 arc0
0 0 0 setrgbcolor
80677.2 72793 850.921 -90.0004 -34.7736 arc0
0 0 0 setrgbcolor
28703.3 79839.3 850.928 89.9996 180 arc0
0 0 0 setrgbcolor
73698.6 73218.5 1276.39 -180.001 -90 arc0
0 0 0 setrgbcolor
71145.8 79413.8 1276.4 -0 90 arc0
85.0935 setlinewidth
27.0172 setlinewidth
newpath
39886.2 57949.6 moveto
40156.4 57679.4 lineto
stroke
newpath
40156.4 57949.6 moveto
39886.2 57679.4 lineto
stroke
newpath
50778.2 57945.3 moveto
51048.3 57675.2 lineto
stroke
newpath
51048.3 57945.3 moveto
50778.2 57675.2 lineto
stroke
newpath
60904.3 38514.2 moveto
61174.5 38244.1 lineto
stroke
newpath
61174.5 38514.2 moveto
60904.3 38244.1 lineto
stroke
newpath
61346.8 59379.2 moveto
61616.9 59109 lineto
stroke
newpath
61616.9 59379.2 moveto
61346.8 59109 lineto
stroke
newpath
65899.3 53941.7 moveto
66169.4 53671.5 lineto
stroke
newpath
66169.4 53941.7 moveto
65899.3 53671.5 lineto
stroke
newpath
67537.3 55081.9 moveto
67807.5 54811.8 lineto
stroke
newpath
67807.5 55081.9 moveto
67537.3 54811.8 lineto
stroke
newpath
67933 59579.1 moveto
68203.2 59309 lineto
stroke
newpath
68203.2 59579.1 moveto
67933 59309 lineto
stroke
newpath
69701.7 53331.7 moveto
69971.9 53061.5 lineto
stroke
newpath
69971.9 53331.7 moveto
69701.7 53061.5 lineto
stroke
newpath
76276.1 68599 moveto
76546.3 68328.9 lineto
stroke
newpath
76546.3 68599 moveto
76276.1 68328.9 lineto
stroke
newpath
76276.1 67526.9 moveto
76546.3 67256.7 lineto
stroke
newpath
76546.3 67526.9 moveto
76276.1 67256.7 lineto
stroke
newpath
76276.1 66522.8 moveto
76546.3 66252.6 lineto
stroke
newpath
76546.3 66522.8 moveto
76276.1 66252.6 lineto
stroke
newpath
76276.1 65330 moveto
76546.3 65059.8 lineto
stroke
newpath
76546.3 65330 moveto
76276.1 65059.8 lineto
stroke
newpath
76276.1 64293.3 moveto
76546.3 64023.1 lineto
stroke
newpath
76546.3 64293.3 moveto
76276.1 64023.1 lineto
stroke
newpath
76276.1 63233.9 moveto
76546.3 62963.7 lineto
stroke
newpath
76546.3 63233.9 moveto
76276.1 62963.7 lineto
stroke
newpath
76276.1 62097.9 moveto
76546.3 61827.7 lineto
stroke
newpath
76546.3 62097.9 moveto
76276.1 61827.7 lineto
stroke
newpath
76276.1 61072.5 moveto
76546.3 60802.4 lineto
stroke
newpath
76546.3 61072.5 moveto
76276.1 60802.4 lineto
stroke
newpath
76276.1 57285.9 moveto
76546.3 57015.7 lineto
stroke
newpath
76546.3 57285.9 moveto
76276.1 57015.7 lineto
stroke
newpath
76276.1 56356.5 moveto
76546.3 56086.4 lineto
stroke
newpath
76546.3 56356.5 moveto
76276.1 56086.4 lineto
stroke
newpath
76276.1 55424.5 moveto
76546.3 55154.3 lineto
stroke
newpath
76546.3 55424.5 moveto
76276.1 55154.3 lineto
stroke
newpath
76280.7 59238.8 moveto
76550.9 58968.6 lineto
stroke
newpath
76550.9 59238.8 moveto
76280.7 58968.6 lineto
stroke
newpath
76297.7 58224.3 moveto
76567.9 57954.2 lineto
stroke
newpath
76567.9 58224.3 moveto
76297.7 57954.2 lineto
stroke
newpath
76387 60165 moveto
76657.2 59894.8 lineto
stroke
newpath
76657.2 60165 moveto
76387 59894.8 lineto
stroke
34.582 setlinewidth
31491.4 54790.8 172.91 cir0
31491.4 53710.2 172.91 cir0
31491.4 52629.5 172.91 cir0
31491.4 51548.8 172.91 cir0
31491.4 50468.1 172.91 cir0
31491.4 49387.4 172.91 cir0
31491.4 48306.7 172.91 cir0
31491.4 47226 172.91 cir0
31491.4 46145.4 172.91 cir0
31491.4 45064.7 172.91 cir0
31491.4 43984 172.91 cir0
31491.4 42903.3 172.91 cir0
31491.4 41822.6 172.91 cir0
31491.4 40741.9 172.91 cir0
31491.4 39661.2 172.91 cir0
31491.4 38580.5 172.91 cir0
31580 76347.9 172.91 cir0
31580 75267.2 172.91 cir0
31580 74186.5 172.91 cir0
31580 73105.8 172.91 cir0
31580 72025.1 172.91 cir0
31580 70944.4 172.91 cir0
31580 69863.7 172.91 cir0
31580 68783.1 172.91 cir0
31580 67702.4 172.91 cir0
31580 66621.7 172.91 cir0
31580 65541 172.91 cir0
31580 64460.3 172.91 cir0
31580 63379.6 172.91 cir0
31580 62298.9 172.91 cir0
31580 61218.2 172.91 cir0
31580 60137.6 172.91 cir0
33599.6 57747.8 172.91 cir0
34025 79021.2 172.91 cir0
35760.9 57747.8 172.91 cir0
36186.4 79021.2 172.91 cir0
37975.5 54790.8 172.91 cir0
37975.5 53710.2 172.91 cir0
37975.5 52629.5 172.91 cir0
37975.5 51548.8 172.91 cir0
37975.5 50468.1 172.91 cir0
37975.5 49387.4 172.91 cir0
37975.5 48306.7 172.91 cir0
37975.5 47226 172.91 cir0
37975.5 46145.4 172.91 cir0
37975.5 45064.7 172.91 cir0
37975.5 43984 172.91 cir0
37975.5 42903.3 172.91 cir0
37975.5 41822.6 172.91 cir0
37975.5 40741.9 172.91 cir0
37975.5 39661.2 172.91 cir0
37975.5 38580.5 172.91 cir0
38064.1 76347.9 172.91 cir0
38064.1 75267.2 172.91 cir0
38064.1 74186.5 172.91 cir0
38064.1 73105.8 172.91 cir0
38064.1 72025.1 172.91 cir0
38064.1 70944.4 172.91 cir0
38064.1 69863.7 172.91 cir0
38064.1 68783.1 172.91 cir0
38064.1 67702.4 172.91 cir0
38064.1 66621.7 172.91 cir0
38064.1 65541 172.91 cir0
38064.1 64460.3 172.91 cir0
38064.1 63379.6 172.91 cir0
38064.1 62298.9 172.91 cir0
38064.1 61218.2 172.91 cir0
38064.1 60137.6 172.91 cir0
41897.6 54790.8 172.91 cir0
41897.6 53710.2 172.91 cir0
41897.6 52629.5 172.91 cir0
41897.6 51548.8 172.91 cir0
41897.6 50468.1 172.91 cir0
41897.6 49387.4 172.91 cir0
41897.6 48306.7 172.91 cir0
41897.6 47226 172.91 cir0
41897.6 46145.4 172.91 cir0
41897.6 45064.7 172.91 cir0
41897.6 43984 172.91 cir0
41897.6 42903.3 172.91 cir0
41897.6 41822.6 172.91 cir0
41897.6 40741.9 172.91 cir0
41897.6 39661.2 172.91 cir0
41897.6 38580.5 172.91 cir0
41915.3 76347.9 172.91 cir0
41915.3 75267.2 172.91 cir0
41915.3 74186.5 172.91 cir0
41915.3 73105.8 172.91 cir0
41915.3 72025.1 172.91 cir0
41915.3 70944.4 172.91 cir0
41915.3 69863.7 172.91 cir0
41915.3 68783.1 172.91 cir0
41915.3 67702.4 172.91 cir0
41915.3 66621.7 172.91 cir0
41915.3 65541 172.91 cir0
41915.3 64460.3 172.91 cir0
41915.3 63379.6 172.91 cir0
41915.3 62298.9 172.91 cir0
41915.3 61218.2 172.91 cir0
41915.3 60137.6 172.91 cir0
44094.4 57747.8 172.91 cir0
44307.2 79021.2 172.91 cir0
46255.8 57747.8 172.91 cir0
46468.5 79021.2 172.91 cir0
48381.7 54790.8 172.91 cir0
48381.7 53710.2 172.91 cir0
48381.7 52629.5 172.91 cir0
48381.7 51548.8 172.91 cir0
48381.7 50468.1 172.91 cir0
48381.7 49387.4 172.91 cir0
48381.7 48306.7 172.91 cir0
48381.7 47226 172.91 cir0
48381.7 46145.4 172.91 cir0
48381.7 45064.7 172.91 cir0
48381.7 43984 172.91 cir0
48381.7 42903.3 172.91 cir0
48381.7 41822.6 172.91 cir0
48381.7 40741.9 172.91 cir0
48381.7 39661.2 172.91 cir0
48381.7 38580.5 172.91 cir0
48399.4 76347.9 172.91 cir0
48399.4 75267.2 172.91 cir0
48399.4 74186.5 172.91 cir0
48399.4 73105.8 172.91 cir0
48399.4 72025.1 172.91 cir0
48399.4 70944.4 172.91 cir0
48399.4 69863.7 172.91 cir0
48399.4 68783.1 172.91 cir0
48399.4 67702.4 172.91 cir0
48399.4 66621.7 172.91 cir0
48399.4 65541 172.91 cir0
48399.4 64460.3 172.91 cir0
48399.4 63379.6 172.91 cir0
48399.4 62298.9 172.91 cir0
48399.4 61218.2 172.91 cir0
48399.4 60137.6 172.91 cir0
52250.6 76347.9 172.91 cir0
52250.6 75267.2 172.91 cir0
52250.6 74186.5 172.91 cir0
52250.6 73105.8 172.91 cir0
52250.6 72025.1 172.91 cir0
52250.6 70944.4 172.91 cir0
52250.6 69863.7 172.91 cir0
52250.6 68783.1 172.91 cir0
52250.6 67702.4 172.91 cir0
52250.6 66621.7 172.91 cir0
52250.6 65541 172.91 cir0
52250.6 64460.3 172.91 cir0
52250.6 63379.6 172.91 cir0
52250.6 62298.9 172.91 cir0
52250.6 61218.2 172.91 cir0
52250.6 60137.6 172.91 cir0
52303.8 54790.8 172.91 cir0
52303.8 53710.2 172.91 cir0
52303.8 52629.5 172.91 cir0
52303.8 51548.8 172.91 cir0
52303.8 50468.1 172.91 cir0
52303.8 49387.4 172.91 cir0
52303.8 48306.7 172.91 cir0
52303.8 47226 172.91 cir0
52303.8 46145.4 172.91 cir0
52303.8 45064.7 172.91 cir0
52303.8 43984 172.91 cir0
52303.8 42903.3 172.91 cir0
52303.8 41822.6 172.91 cir0
52303.8 40741.9 172.91 cir0
52303.8 39661.2 172.91 cir0
52303.8 38580.5 172.91 cir0
54589.3 79021.2 172.91 cir0
54589.3 57747.8 172.91 cir0
56750.7 79021.2 172.91 cir0
56750.7 57747.8 172.91 cir0
58734.8 76347.9 172.91 cir0
58734.8 75267.2 172.91 cir0
58734.8 74186.5 172.91 cir0
58734.8 73105.8 172.91 cir0
58734.8 72025.1 172.91 cir0
58734.8 70944.4 172.91 cir0
58734.8 69863.7 172.91 cir0
58734.8 68783.1 172.91 cir0
58734.8 67702.4 172.91 cir0
58734.8 66621.7 172.91 cir0
58734.8 65541 172.91 cir0
58734.8 64460.3 172.91 cir0
58734.8 63379.6 172.91 cir0
58734.8 62298.9 172.91 cir0
58734.8 61218.2 172.91 cir0
58734.8 60137.6 172.91 cir0
58787.9 54790.8 172.91 cir0
58787.9 53710.2 172.91 cir0
58787.9 52629.5 172.91 cir0
58787.9 51548.8 172.91 cir0
58787.9 50468.1 172.91 cir0
58787.9 49387.4 172.91 cir0
58787.9 48306.7 172.91 cir0
58787.9 47226 172.91 cir0
58787.9 46145.4 172.91 cir0
58787.9 45064.7 172.91 cir0
58787.9 43984 172.91 cir0
58787.9 42903.3 172.91 cir0
58787.9 41822.6 172.91 cir0
58787.9 40741.9 172.91 cir0
58787.9 39661.2 172.91 cir0
58787.9 38580.5 172.91 cir0
62710 54790.8 172.91 cir0
62710 53710.2 172.91 cir0
62710 52629.5 172.91 cir0
62710 51548.8 172.91 cir0
62710 50468.1 172.91 cir0
62710 49387.4 172.91 cir0
62710 48306.7 172.91 cir0
62710 47226 172.91 cir0
62710 46145.4 172.91 cir0
62710 45064.7 172.91 cir0
62710 43984 172.91 cir0
62710 42903.3 172.91 cir0
62710 41822.6 172.91 cir0
62710 40741.9 172.91 cir0
62710 39661.2 172.91 cir0
62710 38580.5 172.91 cir0
62763.2 76347.9 172.91 cir0
62763.2 75267.2 172.91 cir0
62763.2 74186.5 172.91 cir0
62763.2 73105.8 172.91 cir0
62763.2 72025.1 172.91 cir0
62763.2 70944.4 172.91 cir0
62763.2 69863.7 172.91 cir0
62763.2 68783.1 172.91 cir0
62763.2 67702.4 172.91 cir0
62763.2 66621.7 172.91 cir0
62763.2 65541 172.91 cir0
62763.2 64460.3 172.91 cir0
62763.2 63379.6 172.91 cir0
62763.2 62298.9 172.91 cir0
62763.2 61218.2 172.91 cir0
62763.2 60137.6 172.91 cir0
64871.4 79021.2 172.91 cir0
65084.2 57747.8 172.91 cir0
67032.8 79021.2 172.91 cir0
67245.5 57747.8 172.91 cir0
69194.2 54790.8 172.91 cir0
69194.2 53710.2 172.91 cir0
69194.2 52629.5 172.91 cir0
69194.2 51548.8 172.91 cir0
69194.2 50468.1 172.91 cir0
69194.2 49387.4 172.91 cir0
69194.2 48306.7 172.91 cir0
69194.2 47226 172.91 cir0
69194.2 46145.4 172.91 cir0
69194.2 45064.7 172.91 cir0
69194.2 43984 172.91 cir0
69194.2 42903.3 172.91 cir0
69194.2 41822.6 172.91 cir0
69194.2 40741.9 172.91 cir0
69194.2 39661.2 172.91 cir0
69194.2 38580.5 172.91 cir0
69247.4 76347.9 172.91 cir0
69247.4 75267.2 172.91 cir0
69247.4 74186.5 172.91 cir0
69247.4 73105.8 172.91 cir0
69247.4 72025.1 172.91 cir0
69247.4 70944.4 172.91 cir0
69247.4 69863.7 172.91 cir0
69247.4 68783.1 172.91 cir0
69247.4 67702.4 172.91 cir0
69247.4 66621.7 172.91 cir0
69247.4 65541 172.91 cir0
69247.4 64460.3 172.91 cir0
69247.4 63379.6 172.91 cir0
69247.4 62298.9 172.91 cir0
69247.4 61218.2 172.91 cir0
69247.4 60137.6 172.91 cir0
74773.5 40995.8 172.91 cir0
74773.5 37753.7 172.91 cir0
75854.2 40995.8 172.91 cir0
75854.2 37753.7 172.91 cir0
76692.3 45897.2 172.91 cir0
76692.3 42655.1 172.91 cir0
76934.8 40995.8 172.91 cir0
76934.8 37753.7 172.91 cir0
77253.9 50717.7 172.91 cir0
77253.9 47475.6 172.91 cir0
77773 45897.2 172.91 cir0
77773 42655.1 172.91 cir0
78015.5 40995.8 172.91 cir0
78015.5 37753.7 172.91 cir0
78334.6 50717.7 172.91 cir0
78334.6 47475.6 172.91 cir0
78853.7 45897.2 172.91 cir0
78853.7 42655.1 172.91 cir0
79096.2 40995.8 172.91 cir0
79096.2 37753.7 172.91 cir0
79415.3 50717.7 172.91 cir0
79415.3 47475.6 172.91 cir0
79934.4 45897.2 172.91 cir0
79934.4 42655.1 172.91 cir0
80176.9 40995.8 172.91 cir0
80176.9 37753.7 172.91 cir0
80496 50717.7 172.91 cir0
80496 47475.6 172.91 cir0
81015.1 45897.2 172.91 cir0
81015.1 42655.1 172.91 cir0
81257.6 40995.8 172.91 cir0
81257.6 37753.7 172.91 cir0
81576.7 50717.7 172.91 cir0
81576.7 47475.6 172.91 cir0
81929.8 70089.2 172.91 cir0
81929.8 69008.6 172.91 cir0
81929.8 67927.9 172.91 cir0
81929.8 66847.2 172.91 cir0
81929.8 65766.5 172.91 cir0
81929.8 64685.8 172.91 cir0
81929.8 63605.1 172.91 cir0
81929.8 62524.4 172.91 cir0
81929.8 61443.7 172.91 cir0
81929.8 60363.1 172.91 cir0
81929.8 59282.4 172.91 cir0
81929.8 58201.7 172.91 cir0
81929.8 57121 172.91 cir0
81929.8 56040.3 172.91 cir0
81929.8 54959.6 172.91 cir0
81929.8 53878.9 172.91 cir0
82095.8 45897.2 172.91 cir0
82095.8 42655.1 172.91 cir0
82338.3 40995.8 172.91 cir0
82338.3 37753.7 172.91 cir0
82657.4 50717.7 172.91 cir0
82657.4 47475.6 172.91 cir0
83176.4 45897.2 172.91 cir0
83176.4 42655.1 172.91 cir0
83419 40995.8 172.91 cir0
83419 37753.7 172.91 cir0
83738.1 50717.7 172.91 cir0
83738.1 47475.6 172.91 cir0
84257.1 45897.2 172.91 cir0
84257.1 42655.1 172.91 cir0
84499.6 40995.8 172.91 cir0
84499.6 37753.7 172.91 cir0
86890.8 51068.7 172.91 cir0
86890.8 48907.3 172.91 cir0
86890.8 45841.9 172.91 cir0
86890.8 43680.5 172.91 cir0
86890.8 40615 172.91 cir0
86890.8 38453.6 172.91 cir0
88413.9 70089.2 172.91 cir0
88413.9 69008.6 172.91 cir0
88413.9 67927.9 172.91 cir0
88413.9 66847.2 172.91 cir0
88413.9 65766.5 172.91 cir0
88413.9 64685.8 172.91 cir0
88413.9 63605.1 172.91 cir0
88413.9 62524.4 172.91 cir0
88413.9 61443.7 172.91 cir0
88413.9 60363.1 172.91 cir0
88413.9 59282.4 172.91 cir0
88413.9 58201.7 172.91 cir0
88413.9 57121 172.91 cir0
88413.9 56040.3 172.91 cir0
88413.9 54959.6 172.91 cir0
88413.9 53878.9 172.91 cir0
85.0935 setlinewidth
78.74 setlinewidth
0 0 0 setrgbcolor
0 0 0 setrgbcolor
newpath
28845.3 33818.2 moveto
28845.3 34605.6 lineto
29032.8 34605.6 lineto
29145.3 34568.1 lineto
29220.2 34493.1 lineto
29257.7 34418.1 lineto
29295.2 34268.1 lineto
29295.2 34155.6 lineto
29257.7 34005.6 lineto
29220.2 33930.6 lineto
29145.3 33855.7 lineto
29032.8 33818.2 lineto
28845.3 33818.2 lineto
stroke
newpath
29632.7 33818.2 moveto
29632.7 34343.1 lineto
stroke
newpath
29632.7 34193.1 moveto
29670.2 34268.1 lineto
29707.7 34305.6 lineto
29782.7 34343.1 lineto
29857.7 34343.1 lineto
stroke
newpath
30120.1 33818.2 moveto
30120.1 34343.1 lineto
stroke
newpath
30120.1 34605.6 moveto
30082.6 34568.1 lineto
30120.1 34530.6 lineto
30157.6 34568.1 lineto
30120.1 34605.6 lineto
30120.1 34530.6 lineto
stroke
newpath
30607.6 33818.2 moveto
30532.6 33855.7 lineto
30495.1 33930.6 lineto
30495.1 34605.6 lineto
stroke
newpath
31020 33818.2 moveto
30945 33855.7 lineto
30907.5 33930.6 lineto
30907.5 34605.6 lineto
stroke
newpath
31919.9 33818.2 moveto
31919.9 34605.6 lineto
32182.4 34043.1 lineto
32444.8 34605.6 lineto
32444.8 33818.2 lineto
stroke
newpath
33157.3 33818.2 moveto
33157.3 34230.6 lineto
33119.8 34305.6 lineto
33044.8 34343.1 lineto
32894.8 34343.1 lineto
32819.8 34305.6 lineto
stroke
newpath
33157.3 33855.7 moveto
33082.3 33818.2 lineto
32894.8 33818.2 lineto
32819.8 33855.7 lineto
32782.3 33930.6 lineto
32782.3 34005.6 lineto
32819.8 34080.6 lineto
32894.8 34118.1 lineto
33082.3 34118.1 lineto
33157.3 34155.6 lineto
stroke
newpath
33532.2 34343.1 moveto
33532.2 33555.7 lineto
stroke
newpath
33532.2 34305.6 moveto
33607.2 34343.1 lineto
33757.2 34343.1 lineto
33832.2 34305.6 lineto
33869.7 34268.1 lineto
33907.2 34193.1 lineto
33907.2 33968.1 lineto
33869.7 33893.1 lineto
33832.2 33855.7 lineto
33757.2 33818.2 lineto
33607.2 33818.2 lineto
33532.2 33855.7 lineto
stroke
newpath
34244.6 33893.1 moveto
34282.1 33855.7 lineto
34244.6 33818.2 lineto
34207.1 33855.7 lineto
34244.6 33893.1 lineto
34244.6 33818.2 lineto
stroke
newpath
34244.6 34305.6 moveto
34282.1 34268.1 lineto
34244.6 34230.6 lineto
34207.1 34268.1 lineto
34244.6 34305.6 lineto
34244.6 34230.6 lineto
stroke
27.0172 setlinewidth
newpath
27560.9 32655.9 moveto
27831 32385.7 lineto
stroke
newpath
27831 32655.9 moveto
27560.9 32385.7 lineto
stroke
85.0935 setlinewidth
78.74 setlinewidth
0 0 0 setrgbcolor
0 0 0 setrgbcolor
newpath
28995.3 32952 moveto
29070.3 32952 lineto
29145.3 32914.5 lineto
29182.8 32877 lineto
29220.2 32802 lineto
29257.7 32652.1 lineto
29257.7 32464.6 lineto
29220.2 32314.6 lineto
29182.8 32239.6 lineto
29145.3 32202.1 lineto
29070.3 32164.6 lineto
28995.3 32164.6 lineto
28920.3 32202.1 lineto
28882.8 32239.6 lineto
28845.3 32314.6 lineto
28807.8 32464.6 lineto
28807.8 32652.1 lineto
28845.3 32802 lineto
28882.8 32877 lineto
28920.3 32914.5 lineto
28995.3 32952 lineto
stroke
newpath
29595.2 32239.6 moveto
29632.7 32202.1 lineto
29595.2 32164.6 lineto
29557.7 32202.1 lineto
29595.2 32239.6 lineto
29595.2 32164.6 lineto
stroke
newpath
30307.6 32952 moveto
30157.6 32952 lineto
30082.6 32914.5 lineto
30045.1 32877 lineto
29970.2 32764.5 lineto
29932.7 32614.6 lineto
29932.7 32314.6 lineto
29970.2 32239.6 lineto
30007.7 32202.1 lineto
30082.6 32164.6 lineto
30232.6 32164.6 lineto
30307.6 32202.1 lineto
30345.1 32239.6 lineto
30382.6 32314.6 lineto
30382.6 32502.1 lineto
30345.1 32577.1 lineto
30307.6 32614.6 lineto
30232.6 32652.1 lineto
30082.6 32652.1 lineto
30007.7 32614.6 lineto
29970.2 32577.1 lineto
29932.7 32502.1 lineto
stroke
newpath
30645.1 32952 moveto
31132.5 32952 lineto
30870 32652.1 lineto
30982.5 32652.1 lineto
31057.5 32614.6 lineto
31095 32577.1 lineto
31132.5 32502.1 lineto
31132.5 32314.6 lineto
31095 32239.6 lineto
31057.5 32202.1 lineto
30982.5 32164.6 lineto
30757.6 32164.6 lineto
30682.6 32202.1 lineto
30645.1 32239.6 lineto
stroke
newpath
31844.9 32952 moveto
31470 32952 lineto
31432.5 32577.1 lineto
31470 32614.6 lineto
31545 32652.1 lineto
31732.4 32652.1 lineto
31807.4 32614.6 lineto
31844.9 32577.1 lineto
31882.4 32502.1 lineto
31882.4 32314.6 lineto
31844.9 32239.6 lineto
31807.4 32202.1 lineto
31732.4 32164.6 lineto
31545 32164.6 lineto
31470 32202.1 lineto
31432.5 32239.6 lineto
stroke
newpath
32219.9 32164.6 moveto
32219.9 32689.5 lineto
stroke
newpath
32219.9 32614.6 moveto
32257.4 32652.1 lineto
32332.4 32689.5 lineto
32444.8 32689.5 lineto
32519.8 32652.1 lineto
32557.3 32577.1 lineto
32557.3 32164.6 lineto
stroke
newpath
32557.3 32577.1 moveto
32594.8 32652.1 lineto
32669.8 32689.5 lineto
32782.3 32689.5 lineto
32857.3 32652.1 lineto
32894.8 32577.1 lineto
32894.8 32164.6 lineto
stroke
newpath
33269.7 32164.6 moveto
33269.7 32689.5 lineto
stroke
newpath
33269.7 32614.6 moveto
33307.2 32652.1 lineto
33382.2 32689.5 lineto
33494.7 32689.5 lineto
33569.7 32652.1 lineto
33607.2 32577.1 lineto
33607.2 32164.6 lineto
stroke
newpath
33607.2 32577.1 moveto
33644.7 32652.1 lineto
33719.7 32689.5 lineto
33832.2 32689.5 lineto
33907.2 32652.1 lineto
33944.7 32577.1 lineto
33944.7 32164.6 lineto
stroke
newpath
35482 32989.5 moveto
34807.1 31977.1 lineto
stroke
newpath
36494.3 32952 moveto
36569.3 32952 lineto
36644.3 32914.5 lineto
36681.8 32877 lineto
36719.3 32802 lineto
36756.8 32652.1 lineto
36756.8 32464.6 lineto
36719.3 32314.6 lineto
36681.8 32239.6 lineto
36644.3 32202.1 lineto
36569.3 32164.6 lineto
36494.3 32164.6 lineto
36419.3 32202.1 lineto
36381.9 32239.6 lineto
36344.4 32314.6 lineto
36306.9 32464.6 lineto
36306.9 32652.1 lineto
36344.4 32802 lineto
36381.9 32877 lineto
36419.3 32914.5 lineto
36494.3 32952 lineto
stroke
newpath
37094.3 32239.6 moveto
37131.8 32202.1 lineto
37094.3 32164.6 lineto
37056.8 32202.1 lineto
37094.3 32239.6 lineto
37094.3 32164.6 lineto
stroke
newpath
37619.2 32952 moveto
37694.2 32952 lineto
37769.2 32914.5 lineto
37806.7 32877 lineto
37844.2 32802 lineto
37881.7 32652.1 lineto
37881.7 32464.6 lineto
37844.2 32314.6 lineto
37806.7 32239.6 lineto
37769.2 32202.1 lineto
37694.2 32164.6 lineto
37619.2 32164.6 lineto
37544.2 32202.1 lineto
37506.7 32239.6 lineto
37469.2 32314.6 lineto
37431.7 32464.6 lineto
37431.7 32652.1 lineto
37469.2 32802 lineto
37506.7 32877 lineto
37544.2 32914.5 lineto
37619.2 32952 lineto
stroke
newpath
38181.6 32877 moveto
38219.1 32914.5 lineto
38294.1 32952 lineto
38481.6 32952 lineto
38556.6 32914.5 lineto
38594.1 32877 lineto
38631.6 32802 lineto
38631.6 32727 lineto
38594.1 32614.6 lineto
38144.1 32164.6 lineto
38631.6 32164.6 lineto
stroke
newpath
39344 32952 moveto
38969 32952 lineto
38931.5 32577.1 lineto
38969 32614.6 lineto
39044 32652.1 lineto
39231.5 32652.1 lineto
39306.5 32614.6 lineto
39344 32577.1 lineto
39381.5 32502.1 lineto
39381.5 32314.6 lineto
39344 32239.6 lineto
39306.5 32202.1 lineto
39231.5 32164.6 lineto
39044 32164.6 lineto
38969 32202.1 lineto
38931.5 32239.6 lineto
stroke
newpath
39868.9 32952 moveto
39943.9 32952 lineto
40018.9 32914.5 lineto
40056.4 32877 lineto
40093.9 32802 lineto
40131.4 32652.1 lineto
40131.4 32464.6 lineto
40093.9 32314.6 lineto
40056.4 32239.6 lineto
40018.9 32202.1 lineto
39943.9 32164.6 lineto
39868.9 32164.6 lineto
39793.9 32202.1 lineto
39756.4 32239.6 lineto
39718.9 32314.6 lineto
39681.4 32464.6 lineto
39681.4 32652.1 lineto
39718.9 32802 lineto
39756.4 32877 lineto
39793.9 32914.5 lineto
39868.9 32952 lineto
stroke
newpath
40431.3 32952 moveto
40431.3 32802 lineto
stroke
newpath
40731.3 32952 moveto
40731.3 32802 lineto
stroke
newpath
41893.7 31864.7 moveto
41856.2 31902.1 lineto
41781.2 32014.6 lineto
41743.7 32089.6 lineto
41706.2 32202.1 lineto
41668.7 32389.6 lineto
41668.7 32539.6 lineto
41706.2 32727 lineto
41743.7 32839.5 lineto
41781.2 32914.5 lineto
41856.2 33027 lineto
41893.7 33064.5 lineto
stroke
newpath
42156.1 32877 moveto
42193.6 32914.5 lineto
42268.6 32952 lineto
42456.1 32952 lineto
42531.1 32914.5 lineto
42568.6 32877 lineto
42606.1 32802 lineto
42606.1 32727 lineto
42568.6 32614.6 lineto
42118.6 32164.6 lineto
42606.1 32164.6 lineto
stroke
newpath
42906 32877 moveto
42943.5 32914.5 lineto
43018.5 32952 lineto
43206 32952 lineto
43281 32914.5 lineto
43318.5 32877 lineto
43356 32802 lineto
43356 32727 lineto
43318.5 32614.6 lineto
42868.5 32164.6 lineto
43356 32164.6 lineto
stroke
newpath
44293.4 32164.6 moveto
44293.4 32952 lineto
stroke
newpath
44630.8 32164.6 moveto
44630.8 32577.1 lineto
44593.3 32652.1 lineto
44518.3 32689.5 lineto
44405.8 32689.5 lineto
44330.9 32652.1 lineto
44293.4 32614.6 lineto
stroke
newpath
45118.3 32164.6 moveto
45043.3 32202.1 lineto
45005.8 32239.6 lineto
44968.3 32314.6 lineto
44968.3 32539.6 lineto
45005.8 32614.6 lineto
45043.3 32652.1 lineto
45118.3 32689.5 lineto
45230.7 32689.5 lineto
45305.7 32652.1 lineto
45343.2 32614.6 lineto
45380.7 32539.6 lineto
45380.7 32314.6 lineto
45343.2 32239.6 lineto
45305.7 32202.1 lineto
45230.7 32164.6 lineto
45118.3 32164.6 lineto
stroke
newpath
45830.7 32164.6 moveto
45755.7 32202.1 lineto
45718.2 32277.1 lineto
45718.2 32952 lineto
stroke
newpath
46430.6 32202.1 moveto
46355.6 32164.6 lineto
46205.6 32164.6 lineto
46130.6 32202.1 lineto
46093.1 32277.1 lineto
46093.1 32577.1 lineto
46130.6 32652.1 lineto
46205.6 32689.5 lineto
46355.6 32689.5 lineto
46430.6 32652.1 lineto
46468.1 32577.1 lineto
46468.1 32502.1 lineto
46093.1 32427.1 lineto
stroke
newpath
46768.1 32202.1 moveto
46843 32164.6 lineto
46993 32164.6 lineto
47068 32202.1 lineto
47105.5 32277.1 lineto
47105.5 32314.6 lineto
47068 32389.6 lineto
46993 32427.1 lineto
46880.5 32427.1 lineto
46805.5 32464.6 lineto
46768.1 32539.6 lineto
46768.1 32577.1 lineto
46805.5 32652.1 lineto
46880.5 32689.5 lineto
46993 32689.5 lineto
47068 32652.1 lineto
stroke
newpath
47368 31864.7 moveto
47405.5 31902.1 lineto
47480.5 32014.6 lineto
47518 32089.6 lineto
47555.5 32202.1 lineto
47593 32389.6 lineto
47593 32539.6 lineto
47555.5 32727 lineto
47518 32839.5 lineto
47480.5 32914.5 lineto
47405.5 33027 lineto
47368 33064.5 lineto
stroke
34.582 setlinewidth
27658.1 31481.4 172.91 cir0
85.0935 setlinewidth
78.74 setlinewidth
0 0 0 setrgbcolor
0 0 0 setrgbcolor
newpath
28995.3 31912.6 moveto
29070.3 31912.6 lineto
29145.3 31875.2 lineto
29182.8 31837.7 lineto
29220.2 31762.7 lineto
29257.7 31612.7 lineto
29257.7 31425.2 lineto
29220.2 31275.2 lineto
29182.8 31200.2 lineto
29145.3 31162.7 lineto
29070.3 31125.2 lineto
28995.3 31125.2 lineto
28920.3 31162.7 lineto
28882.8 31200.2 lineto
28845.3 31275.2 lineto
28807.8 31425.2 lineto
28807.8 31612.7 lineto
28845.3 31762.7 lineto
28882.8 31837.7 lineto
28920.3 31875.2 lineto
28995.3 31912.6 lineto
stroke
newpath
29595.2 31200.2 moveto
29632.7 31162.7 lineto
29595.2 31125.2 lineto
29557.7 31162.7 lineto
29595.2 31200.2 lineto
29595.2 31125.2 lineto
stroke
newpath
30082.6 31575.2 moveto
30007.7 31612.7 lineto
29970.2 31650.2 lineto
29932.7 31725.2 lineto
29932.7 31762.7 lineto
29970.2 31837.7 lineto
30007.7 31875.2 lineto
30082.6 31912.6 lineto
30232.6 31912.6 lineto
30307.6 31875.2 lineto
30345.1 31837.7 lineto
30382.6 31762.7 lineto
30382.6 31725.2 lineto
30345.1 31650.2 lineto
30307.6 31612.7 lineto
30232.6 31575.2 lineto
30082.6 31575.2 lineto
30007.7 31537.7 lineto
29970.2 31500.2 lineto
29932.7 31425.2 lineto
29932.7 31275.2 lineto
29970.2 31200.2 lineto
30007.7 31162.7 lineto
30082.6 31125.2 lineto
30232.6 31125.2 lineto
30307.6 31162.7 lineto
30345.1 31200.2 lineto
30382.6 31275.2 lineto
30382.6 31425.2 lineto
30345.1 31500.2 lineto
30307.6 31537.7 lineto
30232.6 31575.2 lineto
stroke
newpath
31132.5 31125.2 moveto
30682.6 31125.2 lineto
stroke
newpath
30907.5 31125.2 moveto
30907.5 31912.6 lineto
30832.5 31800.2 lineto
30757.6 31725.2 lineto
30682.6 31687.7 lineto
stroke
newpath
31395 31912.6 moveto
31882.4 31912.6 lineto
31619.9 31612.7 lineto
31732.4 31612.7 lineto
31807.4 31575.2 lineto
31844.9 31537.7 lineto
31882.4 31462.7 lineto
31882.4 31275.2 lineto
31844.9 31200.2 lineto
31807.4 31162.7 lineto
31732.4 31125.2 lineto
31507.5 31125.2 lineto
31432.5 31162.7 lineto
31395 31200.2 lineto
stroke
newpath
32219.9 31125.2 moveto
32219.9 31650.2 lineto
stroke
newpath
32219.9 31575.2 moveto
32257.4 31612.7 lineto
32332.4 31650.2 lineto
32444.8 31650.2 lineto
32519.8 31612.7 lineto
32557.3 31537.7 lineto
32557.3 31125.2 lineto
stroke
newpath
32557.3 31537.7 moveto
32594.8 31612.7 lineto
32669.8 31650.2 lineto
32782.3 31650.2 lineto
32857.3 31612.7 lineto
32894.8 31537.7 lineto
32894.8 31125.2 lineto
stroke
newpath
33269.7 31125.2 moveto
33269.7 31650.2 lineto
stroke
newpath
33269.7 31575.2 moveto
33307.2 31612.7 lineto
33382.2 31650.2 lineto
33494.7 31650.2 lineto
33569.7 31612.7 lineto
33607.2 31537.7 lineto
33607.2 31125.2 lineto
stroke
newpath
33607.2 31537.7 moveto
33644.7 31612.7 lineto
33719.7 31650.2 lineto
33832.2 31650.2 lineto
33907.2 31612.7 lineto
33944.7 31537.7 lineto
33944.7 31125.2 lineto
stroke
newpath
35482 31950.1 moveto
34807.1 30937.8 lineto
stroke
newpath
36494.3 31912.6 moveto
36569.3 31912.6 lineto
36644.3 31875.2 lineto
36681.8 31837.7 lineto
36719.3 31762.7 lineto
36756.8 31612.7 lineto
36756.8 31425.2 lineto
36719.3 31275.2 lineto
36681.8 31200.2 lineto
36644.3 31162.7 lineto
36569.3 31125.2 lineto
36494.3 31125.2 lineto
36419.3 31162.7 lineto
36381.9 31200.2 lineto
36344.4 31275.2 lineto
36306.9 31425.2 lineto
36306.9 31612.7 lineto
36344.4 31762.7 lineto
36381.9 31837.7 lineto
36419.3 31875.2 lineto
36494.3 31912.6 lineto
stroke
newpath
37094.3 31200.2 moveto
37131.8 31162.7 lineto
37094.3 31125.2 lineto
37056.8 31162.7 lineto
37094.3 31200.2 lineto
37094.3 31125.2 lineto
stroke
newpath
37619.2 31912.6 moveto
37694.2 31912.6 lineto
37769.2 31875.2 lineto
37806.7 31837.7 lineto
37844.2 31762.7 lineto
37881.7 31612.7 lineto
37881.7 31425.2 lineto
37844.2 31275.2 lineto
37806.7 31200.2 lineto
37769.2 31162.7 lineto
37694.2 31125.2 lineto
37619.2 31125.2 lineto
37544.2 31162.7 lineto
37506.7 31200.2 lineto
37469.2 31275.2 lineto
37431.7 31425.2 lineto
37431.7 31612.7 lineto
37469.2 31762.7 lineto
37506.7 31837.7 lineto
37544.2 31875.2 lineto
37619.2 31912.6 lineto
stroke
newpath
38144.1 31912.6 moveto
38631.6 31912.6 lineto
38369.1 31612.7 lineto
38481.6 31612.7 lineto
38556.6 31575.2 lineto
38594.1 31537.7 lineto
38631.6 31462.7 lineto
38631.6 31275.2 lineto
38594.1 31200.2 lineto
38556.6 31162.7 lineto
38481.6 31125.2 lineto
38256.6 31125.2 lineto
38181.6 31162.7 lineto
38144.1 31200.2 lineto
stroke
newpath
38931.5 31837.7 moveto
38969 31875.2 lineto
39044 31912.6 lineto
39231.5 31912.6 lineto
39306.5 31875.2 lineto
39344 31837.7 lineto
39381.5 31762.7 lineto
39381.5 31687.7 lineto
39344 31575.2 lineto
38894 31125.2 lineto
39381.5 31125.2 lineto
stroke
newpath
39868.9 31912.6 moveto
39943.9 31912.6 lineto
40018.9 31875.2 lineto
40056.4 31837.7 lineto
40093.9 31762.7 lineto
40131.4 31612.7 lineto
40131.4 31425.2 lineto
40093.9 31275.2 lineto
40056.4 31200.2 lineto
40018.9 31162.7 lineto
39943.9 31125.2 lineto
39868.9 31125.2 lineto
39793.9 31162.7 lineto
39756.4 31200.2 lineto
39718.9 31275.2 lineto
39681.4 31425.2 lineto
39681.4 31612.7 lineto
39718.9 31762.7 lineto
39756.4 31837.7 lineto
39793.9 31875.2 lineto
39868.9 31912.6 lineto
stroke
newpath
40431.3 31912.6 moveto
40431.3 31762.7 lineto
stroke
newpath
40731.3 31912.6 moveto
40731.3 31762.7 lineto
stroke
newpath
41893.7 30825.3 moveto
41856.2 30862.8 lineto
41781.2 30975.3 lineto
41743.7 31050.3 lineto
41706.2 31162.7 lineto
41668.7 31350.2 lineto
41668.7 31500.2 lineto
41706.2 31687.7 lineto
41743.7 31800.2 lineto
41781.2 31875.2 lineto
41856.2 31987.6 lineto
41893.7 32025.1 lineto
stroke
newpath
42118.6 31912.6 moveto
42606.1 31912.6 lineto
42343.6 31612.7 lineto
42456.1 31612.7 lineto
42531.1 31575.2 lineto
42568.6 31537.7 lineto
42606.1 31462.7 lineto
42606.1 31275.2 lineto
42568.6 31200.2 lineto
42531.1 31162.7 lineto
42456.1 31125.2 lineto
42231.1 31125.2 lineto
42156.1 31162.7 lineto
42118.6 31200.2 lineto
stroke
newpath
43281 31912.6 moveto
43131 31912.6 lineto
43056 31875.2 lineto
43018.5 31837.7 lineto
42943.5 31725.2 lineto
42906 31575.2 lineto
42906 31275.2 lineto
42943.5 31200.2 lineto
42981 31162.7 lineto
43056 31125.2 lineto
43206 31125.2 lineto
43281 31162.7 lineto
43318.5 31200.2 lineto
43356 31275.2 lineto
43356 31462.7 lineto
43318.5 31537.7 lineto
43281 31575.2 lineto
43206 31612.7 lineto
43056 31612.7 lineto
42981 31575.2 lineto
42943.5 31537.7 lineto
42906 31462.7 lineto
stroke
newpath
43843.4 31912.6 moveto
43918.4 31912.6 lineto
43993.4 31875.2 lineto
44030.9 31837.7 lineto
44068.4 31762.7 lineto
44105.9 31612.7 lineto
44105.9 31425.2 lineto
44068.4 31275.2 lineto
44030.9 31200.2 lineto
43993.4 31162.7 lineto
43918.4 31125.2 lineto
43843.4 31125.2 lineto
43768.4 31162.7 lineto
43730.9 31200.2 lineto
43693.4 31275.2 lineto
43655.9 31425.2 lineto
43655.9 31612.7 lineto
43693.4 31762.7 lineto
43730.9 31837.7 lineto
43768.4 31875.2 lineto
43843.4 31912.6 lineto
stroke
newpath
45043.3 31125.2 moveto
45043.3 31912.6 lineto
stroke
newpath
45380.7 31125.2 moveto
45380.7 31537.7 lineto
45343.2 31612.7 lineto
45268.2 31650.2 lineto
45155.8 31650.2 lineto
45080.8 31612.7 lineto
45043.3 31575.2 lineto
stroke
newpath
45868.2 31125.2 moveto
45793.2 31162.7 lineto
45755.7 31200.2 lineto
45718.2 31275.2 lineto
45718.2 31500.2 lineto
45755.7 31575.2 lineto
45793.2 31612.7 lineto
45868.2 31650.2 lineto
45980.7 31650.2 lineto
46055.6 31612.7 lineto
46093.1 31575.2 lineto
46130.6 31500.2 lineto
46130.6 31275.2 lineto
46093.1 31200.2 lineto
46055.6 31162.7 lineto
45980.7 31125.2 lineto
45868.2 31125.2 lineto
stroke
newpath
46580.6 31125.2 moveto
46505.6 31162.7 lineto
46468.1 31237.7 lineto
46468.1 31912.6 lineto
stroke
newpath
47180.5 31162.7 moveto
47105.5 31125.2 lineto
46955.5 31125.2 lineto
46880.5 31162.7 lineto
46843 31237.7 lineto
46843 31537.7 lineto
46880.5 31612.7 lineto
46955.5 31650.2 lineto
47105.5 31650.2 lineto
47180.5 31612.7 lineto
47218 31537.7 lineto
47218 31462.7 lineto
46843 31387.7 lineto
stroke
newpath
47518 31162.7 moveto
47593 31125.2 lineto
47742.9 31125.2 lineto
47817.9 31162.7 lineto
47855.4 31237.7 lineto
47855.4 31275.2 lineto
47817.9 31350.2 lineto
47742.9 31387.7 lineto
47630.4 31387.7 lineto
47555.5 31425.2 lineto
47518 31500.2 lineto
47518 31537.7 lineto
47555.5 31612.7 lineto
47630.4 31650.2 lineto
47742.9 31650.2 lineto
47817.9 31612.7 lineto
stroke
newpath
48117.9 30825.3 moveto
48155.4 30862.8 lineto
48230.4 30975.3 lineto
48267.9 31050.3 lineto
48305.4 31162.7 lineto
48342.9 31350.2 lineto
48342.9 31500.2 lineto
48305.4 31687.7 lineto
48267.9 31800.2 lineto
48230.4 31875.2 lineto
48155.4 31987.6 lineto
48117.9 32025.1 lineto
stroke
showpage
grestore
%%EOF
