%!PS-Adobe-3.0
%%Creator: PCBNEW
%%CreationDate: Sat Apr  6 21:12:55 2024
%%Title: ()
%%Pages: 1
%%PageOrder: Ascend
%%BoundingBox: 0 0 596 842
%%DocumentMedia: A4 595 842 0 () ()
%%Orientation: Landscape
%%EndComments
%%BeginProlog
/line { newpath moveto lineto stroke } bind def
/cir0 { newpath 0 360 arc stroke } bind def
/cir1 { newpath 0 360 arc gsave fill grestore stroke } bind def
/cir2 { newpath 0 360 arc gsave fill grestore stroke } bind def
/arc0 { newpath arc stroke } bind def
/arc1 { newpath 4 index 4 index moveto arc closepath gsave fill
    grestore stroke } bind def
/arc2 { newpath 4 index 4 index moveto arc closepath gsave fill
    grestore stroke } bind def
/poly0 { stroke } bind def
/poly1 { closepath gsave fill grestore stroke } bind def
/poly2 { closepath gsave fill grestore stroke } bind def
/rect0 { rectstroke } bind def
/rect1 { rectfill } bind def
/rect2 { rectfill } bind def
/linemode0 { 0 setlinecap 0 setlinejoin 0 setlinewidth } bind def
/linemode1 { 1 setlinecap 1 setlinejoin } bind def
/dashedline { [200] 100 setdash } bind def
/solidline { [] 0 setdash } bind def
/phantomshow { moveto
    /KicadFont findfont 0.000001 scalefont setfont
    show } bind def
/textshow { gsave
    findfont exch scalefont setfont concat 1 scale 0 0 moveto show
    } bind def
/reencodefont {
  findfont dup length dict begin
  { 1 index /FID ne
    { def }
    { pop pop } ifelse
  } forall
  /Encoding ISOLatin1Encoding def
  currentdict
  end } bind def
/KicadFont /Helvetica reencodefont definefont pop
/KicadFont-Bold /Helvetica-Bold reencodefont definefont pop
/KicadFont-Oblique /Helvetica-Oblique reencodefont definefont pop
/KicadFont-BoldOblique /Helvetica-BoldOblique reencodefont definefont pop
%%EndProlog
%%Page: 1 1
%%BeginPageSetup
gsave
0.0072 0.0072 scale
linemode1
82680 0 translate 90 rotate
85.0935 setlinewidth
%%EndPageSetup
0 0 0 setrgbcolor
42.5467 setlinewidth
newpath
87804.2 52301.5 moveto
87804.2 35912.7 lineto
stroke
0 0 0 setrgbcolor
newpath
73698.6 71942.1 moveto
80677.2 71942.1 lineto
stroke
0 0 0 setrgbcolor
newpath
82061.2 72653.8 moveto
88226.7 72653.8 lineto
stroke
0 0 0 setrgbcolor
newpath
72422.2 79413.8 moveto
72422.2 73218.5 lineto
stroke
0 0 0 setrgbcolor
newpath
88226.7 52301.5 moveto
87804.2 52301.5 lineto
stroke
0 0 0 setrgbcolor
newpath
89077.7 71802.9 moveto
89077.7 53152.4 lineto
stroke
0 0 0 setrgbcolor
newpath
28703.3 35061.8 moveto
86953.3 35061.8 lineto
stroke
0 0 0 setrgbcolor
newpath
27852.3 79839.3 moveto
27852.3 35912.7 lineto
stroke
0 0 0 setrgbcolor
newpath
28703.3 80690.2 moveto
71145.8 80690.2 lineto
stroke
0 0 0 setrgbcolor
86953.3 35912.7 850.925 -90.0007 -0 arc0
0 0 0 setrgbcolor
29291.3 70962.3 638.201 cir0
0 0 0 setrgbcolor
28904.4 50136.3 638.201 cir0
0 0 0 setrgbcolor
88226.7 53152.4 850.941 -89.9996 -0.000572954 arc0
0 0 0 setrgbcolor
28703.3 35912.7 850.935 -180 -89.9996 arc0
0 0 0 setrgbcolor
88226.7 71802.9 850.913 -0.00146103 89.9996 arc0
0 0 0 setrgbcolor
82061.2 71802.8 850.935 89.999 143.61 arc0
0 0 0 setrgbcolor
80677.2 72793 850.921 -90.0004 -34.7736 arc0
0 0 0 setrgbcolor
28703.3 79839.3 850.928 89.9996 180 arc0
0 0 0 setrgbcolor
73698.6 73218.5 1276.39 -180.001 -90 arc0
0 0 0 setrgbcolor
71145.8 79413.8 1276.4 -0 90 arc0
85.0935 setlinewidth
78.74 setlinewidth
0 0 0 setrgbcolor
0 0 0 setrgbcolor
newpath
28845.3 33818.2 moveto
28845.3 34605.6 lineto
29032.8 34605.6 lineto
29145.3 34568.1 lineto
29220.2 34493.1 lineto
29257.7 34418.1 lineto
29295.2 34268.1 lineto
29295.2 34155.6 lineto
29257.7 34005.6 lineto
29220.2 33930.6 lineto
29145.3 33855.7 lineto
29032.8 33818.2 lineto
28845.3 33818.2 lineto
stroke
newpath
29632.7 33818.2 moveto
29632.7 34343.1 lineto
stroke
newpath
29632.7 34193.1 moveto
29670.2 34268.1 lineto
29707.7 34305.6 lineto
29782.7 34343.1 lineto
29857.7 34343.1 lineto
stroke
newpath
30120.1 33818.2 moveto
30120.1 34343.1 lineto
stroke
newpath
30120.1 34605.6 moveto
30082.6 34568.1 lineto
30120.1 34530.6 lineto
30157.6 34568.1 lineto
30120.1 34605.6 lineto
30120.1 34530.6 lineto
stroke
newpath
30607.6 33818.2 moveto
30532.6 33855.7 lineto
30495.1 33930.6 lineto
30495.1 34605.6 lineto
stroke
newpath
31020 33818.2 moveto
30945 33855.7 lineto
30907.5 33930.6 lineto
30907.5 34605.6 lineto
stroke
newpath
31919.9 33818.2 moveto
31919.9 34605.6 lineto
32182.4 34043.1 lineto
32444.8 34605.6 lineto
32444.8 33818.2 lineto
stroke
newpath
33157.3 33818.2 moveto
33157.3 34230.6 lineto
33119.8 34305.6 lineto
33044.8 34343.1 lineto
32894.8 34343.1 lineto
32819.8 34305.6 lineto
stroke
newpath
33157.3 33855.7 moveto
33082.3 33818.2 lineto
32894.8 33818.2 lineto
32819.8 33855.7 lineto
32782.3 33930.6 lineto
32782.3 34005.6 lineto
32819.8 34080.6 lineto
32894.8 34118.1 lineto
33082.3 34118.1 lineto
33157.3 34155.6 lineto
stroke
newpath
33532.2 34343.1 moveto
33532.2 33555.7 lineto
stroke
newpath
33532.2 34305.6 moveto
33607.2 34343.1 lineto
33757.2 34343.1 lineto
33832.2 34305.6 lineto
33869.7 34268.1 lineto
33907.2 34193.1 lineto
33907.2 33968.1 lineto
33869.7 33893.1 lineto
33832.2 33855.7 lineto
33757.2 33818.2 lineto
33607.2 33818.2 lineto
33532.2 33855.7 lineto
stroke
newpath
34244.6 33893.1 moveto
34282.1 33855.7 lineto
34244.6 33818.2 lineto
34207.1 33855.7 lineto
34244.6 33893.1 lineto
34244.6 33818.2 lineto
stroke
newpath
34244.6 34305.6 moveto
34282.1 34268.1 lineto
34244.6 34230.6 lineto
34207.1 34268.1 lineto
34244.6 34305.6 lineto
34244.6 34230.6 lineto
stroke
showpage
grestore
%%EOF
