%TF.GenerationSoftware,KiCad,Pcbnew,6.0.6-3a73a75311~116~ubuntu21.10.1*%
%TF.CreationDate,2024-04-06T22:00:19+11:00*%
%TF.ProjectId,FPGA_SRAM,46504741-5f53-4524-914d-2e6b69636164,rev?*%
%TF.SameCoordinates,Original*%
%TF.FileFunction,Copper,L4,Bot*%
%TF.FilePolarity,Positive*%
%FSLAX46Y46*%
G04 Gerber Fmt 4.6, Leading zero omitted, Abs format (unit mm)*
G04 Created by KiCad (PCBNEW 6.0.6-3a73a75311~116~ubuntu21.10.1) date 2024-04-06 22:00:19*
%MOMM*%
%LPD*%
G01*
G04 APERTURE LIST*
%TA.AperFunction,ComponentPad*%
%ADD10R,1.397000X1.397000*%
%TD*%
%TA.AperFunction,ComponentPad*%
%ADD11C,1.397000*%
%TD*%
%TA.AperFunction,ViaPad*%
%ADD12C,1.143000*%
%TD*%
%TA.AperFunction,Conductor*%
%ADD13C,0.431800*%
%TD*%
G04 APERTURE END LIST*
D10*
%TO.P,U1,1*%
%TO.N,/CS\u002A*%
X157340000Y-121190000D03*
D11*
%TO.P,U1,2*%
%TO.N,/OE\u002A*%
X154800000Y-121190000D03*
%TO.P,U1,3*%
%TO.N,N/C*%
X152260000Y-121190000D03*
%TO.P,U1,4*%
X149720000Y-121190000D03*
%TO.P,U1,5*%
X147180000Y-121190000D03*
%TO.P,U1,6*%
X144640000Y-121190000D03*
%TO.P,U1,7,GND*%
%TO.N,GND*%
X142100000Y-121190000D03*
%TO.P,U1,8*%
%TO.N,N/C*%
X142100000Y-128810000D03*
%TO.P,U1,9*%
X144640000Y-128810000D03*
%TO.P,U1,10*%
X147180000Y-128810000D03*
%TO.P,U1,11*%
X149720000Y-128810000D03*
%TO.P,U1,12*%
%TO.N,Net-(U1-Pad12)*%
X152260000Y-128810000D03*
%TO.P,U1,13*%
%TO.N,/WR\u002A*%
X154800000Y-128810000D03*
%TO.P,U1,14,VCC*%
%TO.N,VCC*%
X157340000Y-128810000D03*
%TD*%
D10*
%TO.P,U2,1,A0*%
%TO.N,/A16*%
X158560000Y-132520000D03*
D11*
%TO.P,U2,2,A1*%
%TO.N,/A17*%
X156020000Y-132520000D03*
%TO.P,U2,3,A2*%
%TO.N,/A18*%
X153480000Y-132520000D03*
%TO.P,U2,4,E1*%
%TO.N,Net-(U1-Pad12)*%
X150940000Y-132520000D03*
%TO.P,U2,5,E2*%
%TO.N,GND*%
X148400000Y-132520000D03*
%TO.P,U2,6,E3*%
X145860000Y-132520000D03*
%TO.P,U2,7,O7*%
%TO.N,Net-(U2-Pad7)*%
X143320000Y-132520000D03*
%TO.P,U2,8,GND*%
%TO.N,GND*%
X140780000Y-132520000D03*
%TO.P,U2,9,O6*%
%TO.N,Net-(U2-Pad9)*%
X140780000Y-140140000D03*
%TO.P,U2,10,O5*%
%TO.N,Net-(U2-Pad10)*%
X143320000Y-140140000D03*
%TO.P,U2,11,O4*%
%TO.N,Net-(U2-Pad11)*%
X145860000Y-140140000D03*
%TO.P,U2,12,O3*%
%TO.N,Net-(U2-Pad12)*%
X148400000Y-140140000D03*
%TO.P,U2,13,O2*%
%TO.N,Net-(U2-Pad13)*%
X150940000Y-140140000D03*
%TO.P,U2,14,O1*%
%TO.N,Net-(U2-Pad14)*%
X153480000Y-140140000D03*
%TO.P,U2,15,O0*%
%TO.N,Net-(U2-Pad15)*%
X156020000Y-140140000D03*
%TO.P,U2,16,VCC*%
%TO.N,VCC*%
X158560000Y-140140000D03*
%TD*%
D10*
%TO.P,U3,1,OE*%
%TO.N,GND*%
X159130000Y-144040000D03*
D11*
%TO.P,U3,2,O0*%
%TO.N,/CS_A*%
X156590000Y-144040000D03*
%TO.P,U3,3,D0*%
%TO.N,Net-(U2-Pad15)*%
X154050000Y-144040000D03*
%TO.P,U3,4,D1*%
%TO.N,Net-(U2-Pad14)*%
X151510000Y-144040000D03*
%TO.P,U3,5,O1*%
%TO.N,/CS_B*%
X148970000Y-144040000D03*
%TO.P,U3,6,O2*%
%TO.N,/CS_C*%
X146430000Y-144040000D03*
%TO.P,U3,7,D2*%
%TO.N,Net-(U2-Pad13)*%
X143890000Y-144040000D03*
%TO.P,U3,8,D3*%
%TO.N,Net-(U2-Pad12)*%
X141350000Y-144040000D03*
%TO.P,U3,9,O3*%
%TO.N,/CS_D*%
X138810000Y-144040000D03*
%TO.P,U3,10,GND*%
%TO.N,GND*%
X136270000Y-144040000D03*
%TO.P,U3,11,LE*%
%TO.N,Net-(U1-Pad12)*%
X136270000Y-151660000D03*
%TO.P,U3,12,O4*%
%TO.N,/CS_E*%
X138810000Y-151660000D03*
%TO.P,U3,13,D4*%
%TO.N,Net-(U2-Pad11)*%
X141350000Y-151660000D03*
%TO.P,U3,14,D5*%
%TO.N,Net-(U2-Pad10)*%
X143890000Y-151660000D03*
%TO.P,U3,15,O5*%
%TO.N,/CS_F*%
X146430000Y-151660000D03*
%TO.P,U3,16,O6*%
%TO.N,/CS_G*%
X148970000Y-151660000D03*
%TO.P,U3,17,D6*%
%TO.N,Net-(U2-Pad9)*%
X151510000Y-151660000D03*
%TO.P,U3,18,D7*%
%TO.N,Net-(U2-Pad7)*%
X154050000Y-151660000D03*
%TO.P,U3,19,O7*%
%TO.N,/CS_H*%
X156590000Y-151660000D03*
%TO.P,U3,20,VCC*%
%TO.N,VCC*%
X159130000Y-151660000D03*
%TD*%
D10*
%TO.P,U12,1,A18*%
%TO.N,/A18*%
X108041666Y-60950000D03*
D11*
%TO.P,U12,2,A16*%
%TO.N,/A16*%
X108041666Y-63490000D03*
%TO.P,U12,3,A14*%
%TO.N,/A14*%
X108041666Y-66030000D03*
%TO.P,U12,4,A12*%
%TO.N,/A12*%
X108041666Y-68570000D03*
%TO.P,U12,5,A7*%
%TO.N,/A7*%
X108041666Y-71110000D03*
%TO.P,U12,6,A6*%
%TO.N,/A6*%
X108041666Y-73650000D03*
%TO.P,U12,7,A5*%
%TO.N,/A5*%
X108041666Y-76190000D03*
%TO.P,U12,8,A4*%
%TO.N,/A4*%
X108041666Y-78730000D03*
%TO.P,U12,9,A3*%
%TO.N,/A3*%
X108041666Y-81270000D03*
%TO.P,U12,10,A2*%
%TO.N,/A2*%
X108041666Y-83810000D03*
%TO.P,U12,11,A1*%
%TO.N,/A1*%
X108041666Y-86350000D03*
%TO.P,U12,12,A0*%
%TO.N,/A0*%
X108041666Y-88890000D03*
%TO.P,U12,13,D0*%
%TO.N,/D0*%
X108041666Y-91430000D03*
%TO.P,U12,14,D1*%
%TO.N,/D1*%
X108041666Y-93970000D03*
%TO.P,U12,15,D2*%
%TO.N,/D2*%
X108041666Y-96510000D03*
%TO.P,U12,16,GND*%
%TO.N,GND*%
X108041666Y-99050000D03*
%TO.P,U12,17,D3*%
%TO.N,/D3*%
X123281666Y-99050000D03*
%TO.P,U12,18,D4*%
%TO.N,/D4*%
X123281666Y-96510000D03*
%TO.P,U12,19,D5*%
%TO.N,/D5*%
X123281666Y-93970000D03*
%TO.P,U12,20,D6*%
%TO.N,/D6*%
X123281666Y-91430000D03*
%TO.P,U12,21,D7*%
%TO.N,/D7*%
X123281666Y-88890000D03*
%TO.P,U12,22,~{CS}*%
%TO.N,/CS_D*%
X123281666Y-86350000D03*
%TO.P,U12,23,A10*%
%TO.N,/A10*%
X123281666Y-83810000D03*
%TO.P,U12,24,~{OE}*%
%TO.N,/OE\u002A*%
X123281666Y-81270000D03*
%TO.P,U12,25,A11*%
%TO.N,/A11*%
X123281666Y-78730000D03*
%TO.P,U12,26,A9*%
%TO.N,/A9*%
X123281666Y-76190000D03*
%TO.P,U12,27,A8*%
%TO.N,/A8*%
X123281666Y-73650000D03*
%TO.P,U12,28,A13*%
%TO.N,/A13*%
X123281666Y-71110000D03*
%TO.P,U12,29,~{WE}*%
%TO.N,/WR\u002A*%
X123281666Y-68570000D03*
%TO.P,U12,30,A17*%
%TO.N,/A17*%
X123281666Y-66030000D03*
%TO.P,U12,31,A15*%
%TO.N,/A15*%
X123281666Y-63490000D03*
%TO.P,U12,32,VCC*%
%TO.N,VCC*%
X123281666Y-60950000D03*
%TD*%
D10*
%TO.P,U7,1,A18*%
%TO.N,/A18*%
X34541666Y-111616667D03*
D11*
%TO.P,U7,2,A16*%
%TO.N,/A16*%
X34541666Y-114156667D03*
%TO.P,U7,3,A14*%
%TO.N,/A14*%
X34541666Y-116696667D03*
%TO.P,U7,4,A12*%
%TO.N,/A12*%
X34541666Y-119236667D03*
%TO.P,U7,5,A7*%
%TO.N,/A7*%
X34541666Y-121776667D03*
%TO.P,U7,6,A6*%
%TO.N,/A6*%
X34541666Y-124316667D03*
%TO.P,U7,7,A5*%
%TO.N,/A5*%
X34541666Y-126856667D03*
%TO.P,U7,8,A4*%
%TO.N,/A4*%
X34541666Y-129396667D03*
%TO.P,U7,9,A3*%
%TO.N,/A3*%
X34541666Y-131936667D03*
%TO.P,U7,10,A2*%
%TO.N,/A2*%
X34541666Y-134476667D03*
%TO.P,U7,11,A1*%
%TO.N,/A1*%
X34541666Y-137016667D03*
%TO.P,U7,12,A0*%
%TO.N,/A0*%
X34541666Y-139556667D03*
%TO.P,U7,13,D0*%
%TO.N,/D0*%
X34541666Y-142096667D03*
%TO.P,U7,14,D1*%
%TO.N,/D1*%
X34541666Y-144636667D03*
%TO.P,U7,15,D2*%
%TO.N,/D2*%
X34541666Y-147176667D03*
%TO.P,U7,16,GND*%
%TO.N,GND*%
X34541666Y-149716667D03*
%TO.P,U7,17,D3*%
%TO.N,/D3*%
X49781666Y-149716667D03*
%TO.P,U7,18,D4*%
%TO.N,/D4*%
X49781666Y-147176667D03*
%TO.P,U7,19,D5*%
%TO.N,/D5*%
X49781666Y-144636667D03*
%TO.P,U7,20,D6*%
%TO.N,/D6*%
X49781666Y-142096667D03*
%TO.P,U7,21,D7*%
%TO.N,/D7*%
X49781666Y-139556667D03*
%TO.P,U7,22,~{CS}*%
%TO.N,/CS_F*%
X49781666Y-137016667D03*
%TO.P,U7,23,A10*%
%TO.N,/A10*%
X49781666Y-134476667D03*
%TO.P,U7,24,~{OE}*%
%TO.N,/OE\u002A*%
X49781666Y-131936667D03*
%TO.P,U7,25,A11*%
%TO.N,/A11*%
X49781666Y-129396667D03*
%TO.P,U7,26,A9*%
%TO.N,/A9*%
X49781666Y-126856667D03*
%TO.P,U7,27,A8*%
%TO.N,/A8*%
X49781666Y-124316667D03*
%TO.P,U7,28,A13*%
%TO.N,/A13*%
X49781666Y-121776667D03*
%TO.P,U7,29,~{WE}*%
%TO.N,/WR\u002A*%
X49781666Y-119236667D03*
%TO.P,U7,30,A17*%
%TO.N,/A17*%
X49781666Y-116696667D03*
%TO.P,U7,31,A15*%
%TO.N,/A15*%
X49781666Y-114156667D03*
%TO.P,U7,32,VCC*%
%TO.N,VCC*%
X49781666Y-111616667D03*
%TD*%
%TO.P,C20,1*%
%TO.N,VCC*%
X118076666Y-54666668D03*
%TO.P,C20,2*%
%TO.N,GND*%
X112996666Y-54666668D03*
%TD*%
D10*
%TO.P,U9,1,A18*%
%TO.N,/A18*%
X58999999Y-111616667D03*
D11*
%TO.P,U9,2,A16*%
%TO.N,/A16*%
X58999999Y-114156667D03*
%TO.P,U9,3,A14*%
%TO.N,/A14*%
X58999999Y-116696667D03*
%TO.P,U9,4,A12*%
%TO.N,/A12*%
X58999999Y-119236667D03*
%TO.P,U9,5,A7*%
%TO.N,/A7*%
X58999999Y-121776667D03*
%TO.P,U9,6,A6*%
%TO.N,/A6*%
X58999999Y-124316667D03*
%TO.P,U9,7,A5*%
%TO.N,/A5*%
X58999999Y-126856667D03*
%TO.P,U9,8,A4*%
%TO.N,/A4*%
X58999999Y-129396667D03*
%TO.P,U9,9,A3*%
%TO.N,/A3*%
X58999999Y-131936667D03*
%TO.P,U9,10,A2*%
%TO.N,/A2*%
X58999999Y-134476667D03*
%TO.P,U9,11,A1*%
%TO.N,/A1*%
X58999999Y-137016667D03*
%TO.P,U9,12,A0*%
%TO.N,/A0*%
X58999999Y-139556667D03*
%TO.P,U9,13,D0*%
%TO.N,/D0*%
X58999999Y-142096667D03*
%TO.P,U9,14,D1*%
%TO.N,/D1*%
X58999999Y-144636667D03*
%TO.P,U9,15,D2*%
%TO.N,/D2*%
X58999999Y-147176667D03*
%TO.P,U9,16,GND*%
%TO.N,GND*%
X58999999Y-149716667D03*
%TO.P,U9,17,D3*%
%TO.N,/D3*%
X74239999Y-149716667D03*
%TO.P,U9,18,D4*%
%TO.N,/D4*%
X74239999Y-147176667D03*
%TO.P,U9,19,D5*%
%TO.N,/D5*%
X74239999Y-144636667D03*
%TO.P,U9,20,D6*%
%TO.N,/D6*%
X74239999Y-142096667D03*
%TO.P,U9,21,D7*%
%TO.N,/D7*%
X74239999Y-139556667D03*
%TO.P,U9,22,~{CS}*%
%TO.N,/CS_G*%
X74239999Y-137016667D03*
%TO.P,U9,23,A10*%
%TO.N,/A10*%
X74239999Y-134476667D03*
%TO.P,U9,24,~{OE}*%
%TO.N,/OE\u002A*%
X74239999Y-131936667D03*
%TO.P,U9,25,A11*%
%TO.N,/A11*%
X74239999Y-129396667D03*
%TO.P,U9,26,A9*%
%TO.N,/A9*%
X74239999Y-126856667D03*
%TO.P,U9,27,A8*%
%TO.N,/A8*%
X74239999Y-124316667D03*
%TO.P,U9,28,A13*%
%TO.N,/A13*%
X74239999Y-121776667D03*
%TO.P,U9,29,~{WE}*%
%TO.N,/WR\u002A*%
X74239999Y-119236667D03*
%TO.P,U9,30,A17*%
%TO.N,/A17*%
X74239999Y-116696667D03*
%TO.P,U9,31,A15*%
%TO.N,/A15*%
X74239999Y-114156667D03*
%TO.P,U9,32,VCC*%
%TO.N,VCC*%
X74239999Y-111616667D03*
%TD*%
%TO.P,C21,1*%
%TO.N,VCC*%
X164750000Y-125445000D03*
%TO.P,C21,2*%
%TO.N,GND*%
X164750000Y-120365000D03*
%TD*%
D10*
%TO.P,U5,1,A18*%
%TO.N,/A18*%
X34750000Y-60950000D03*
D11*
%TO.P,U5,2,A16*%
%TO.N,/A16*%
X34750000Y-63490000D03*
%TO.P,U5,3,A14*%
%TO.N,/A14*%
X34750000Y-66030000D03*
%TO.P,U5,4,A12*%
%TO.N,/A12*%
X34750000Y-68570000D03*
%TO.P,U5,5,A7*%
%TO.N,/A7*%
X34750000Y-71110000D03*
%TO.P,U5,6,A6*%
%TO.N,/A6*%
X34750000Y-73650000D03*
%TO.P,U5,7,A5*%
%TO.N,/A5*%
X34750000Y-76190000D03*
%TO.P,U5,8,A4*%
%TO.N,/A4*%
X34750000Y-78730000D03*
%TO.P,U5,9,A3*%
%TO.N,/A3*%
X34750000Y-81270000D03*
%TO.P,U5,10,A2*%
%TO.N,/A2*%
X34750000Y-83810000D03*
%TO.P,U5,11,A1*%
%TO.N,/A1*%
X34750000Y-86350000D03*
%TO.P,U5,12,A0*%
%TO.N,/A0*%
X34750000Y-88890000D03*
%TO.P,U5,13,D0*%
%TO.N,/D0*%
X34750000Y-91430000D03*
%TO.P,U5,14,D1*%
%TO.N,/D1*%
X34750000Y-93970000D03*
%TO.P,U5,15,D2*%
%TO.N,/D2*%
X34750000Y-96510000D03*
%TO.P,U5,16,GND*%
%TO.N,GND*%
X34750000Y-99050000D03*
%TO.P,U5,17,D3*%
%TO.N,/D3*%
X49990000Y-99050000D03*
%TO.P,U5,18,D4*%
%TO.N,/D4*%
X49990000Y-96510000D03*
%TO.P,U5,19,D5*%
%TO.N,/D5*%
X49990000Y-93970000D03*
%TO.P,U5,20,D6*%
%TO.N,/D6*%
X49990000Y-91430000D03*
%TO.P,U5,21,D7*%
%TO.N,/D7*%
X49990000Y-88890000D03*
%TO.P,U5,22,~{CS}*%
%TO.N,/CS_A*%
X49990000Y-86350000D03*
%TO.P,U5,23,A10*%
%TO.N,/A10*%
X49990000Y-83810000D03*
%TO.P,U5,24,~{OE}*%
%TO.N,/OE\u002A*%
X49990000Y-81270000D03*
%TO.P,U5,25,A11*%
%TO.N,/A11*%
X49990000Y-78730000D03*
%TO.P,U5,26,A9*%
%TO.N,/A9*%
X49990000Y-76190000D03*
%TO.P,U5,27,A8*%
%TO.N,/A8*%
X49990000Y-73650000D03*
%TO.P,U5,28,A13*%
%TO.N,/A13*%
X49990000Y-71110000D03*
%TO.P,U5,29,~{WE}*%
%TO.N,/WR\u002A*%
X49990000Y-68570000D03*
%TO.P,U5,30,A17*%
%TO.N,/A17*%
X49990000Y-66030000D03*
%TO.P,U5,31,A15*%
%TO.N,/A15*%
X49990000Y-63490000D03*
%TO.P,U5,32,VCC*%
%TO.N,VCC*%
X49990000Y-60950000D03*
%TD*%
%TO.P,C19,1*%
%TO.N,VCC*%
X44576666Y-104666668D03*
%TO.P,C19,2*%
%TO.N,GND*%
X39496666Y-104666668D03*
%TD*%
D10*
%TO.P,U10,1,A18*%
%TO.N,/A18*%
X107916666Y-111616667D03*
D11*
%TO.P,U10,2,A16*%
%TO.N,/A16*%
X107916666Y-114156667D03*
%TO.P,U10,3,A14*%
%TO.N,/A14*%
X107916666Y-116696667D03*
%TO.P,U10,4,A12*%
%TO.N,/A12*%
X107916666Y-119236667D03*
%TO.P,U10,5,A7*%
%TO.N,/A7*%
X107916666Y-121776667D03*
%TO.P,U10,6,A6*%
%TO.N,/A6*%
X107916666Y-124316667D03*
%TO.P,U10,7,A5*%
%TO.N,/A5*%
X107916666Y-126856667D03*
%TO.P,U10,8,A4*%
%TO.N,/A4*%
X107916666Y-129396667D03*
%TO.P,U10,9,A3*%
%TO.N,/A3*%
X107916666Y-131936667D03*
%TO.P,U10,10,A2*%
%TO.N,/A2*%
X107916666Y-134476667D03*
%TO.P,U10,11,A1*%
%TO.N,/A1*%
X107916666Y-137016667D03*
%TO.P,U10,12,A0*%
%TO.N,/A0*%
X107916666Y-139556667D03*
%TO.P,U10,13,D0*%
%TO.N,/D0*%
X107916666Y-142096667D03*
%TO.P,U10,14,D1*%
%TO.N,/D1*%
X107916666Y-144636667D03*
%TO.P,U10,15,D2*%
%TO.N,/D2*%
X107916666Y-147176667D03*
%TO.P,U10,16,GND*%
%TO.N,GND*%
X107916666Y-149716667D03*
%TO.P,U10,17,D3*%
%TO.N,/D3*%
X123156666Y-149716667D03*
%TO.P,U10,18,D4*%
%TO.N,/D4*%
X123156666Y-147176667D03*
%TO.P,U10,19,D5*%
%TO.N,/D5*%
X123156666Y-144636667D03*
%TO.P,U10,20,D6*%
%TO.N,/D6*%
X123156666Y-142096667D03*
%TO.P,U10,21,D7*%
%TO.N,/D7*%
X123156666Y-139556667D03*
%TO.P,U10,22,~{CS}*%
%TO.N,/CS_C*%
X123156666Y-137016667D03*
%TO.P,U10,23,A10*%
%TO.N,/A10*%
X123156666Y-134476667D03*
%TO.P,U10,24,~{OE}*%
%TO.N,/OE\u002A*%
X123156666Y-131936667D03*
%TO.P,U10,25,A11*%
%TO.N,/A11*%
X123156666Y-129396667D03*
%TO.P,U10,26,A9*%
%TO.N,/A9*%
X123156666Y-126856667D03*
%TO.P,U10,27,A8*%
%TO.N,/A8*%
X123156666Y-124316667D03*
%TO.P,U10,28,A13*%
%TO.N,/A13*%
X123156666Y-121776667D03*
%TO.P,U10,29,~{WE}*%
%TO.N,/WR\u002A*%
X123156666Y-119236667D03*
%TO.P,U10,30,A17*%
%TO.N,/A17*%
X123156666Y-116696667D03*
%TO.P,U10,31,A15*%
%TO.N,/A15*%
X123156666Y-114156667D03*
%TO.P,U10,32,VCC*%
%TO.N,VCC*%
X123156666Y-111616667D03*
%TD*%
%TO.P,C27,1*%
%TO.N,VCC*%
X118576666Y-104666668D03*
%TO.P,C27,2*%
%TO.N,GND*%
X113496666Y-104666668D03*
%TD*%
%TO.P,C25,1*%
%TO.N,VCC*%
X93909998Y-54666668D03*
%TO.P,C25,2*%
%TO.N,GND*%
X88829998Y-54666668D03*
%TD*%
%TO.P,C29,1*%
%TO.N,VCC*%
X45576666Y-54666668D03*
%TO.P,C29,2*%
%TO.N,GND*%
X40496666Y-54666668D03*
%TD*%
%TO.P,C16,1*%
%TO.N,VCC*%
X164750000Y-137730000D03*
%TO.P,C16,2*%
%TO.N,GND*%
X164750000Y-132650000D03*
%TD*%
D10*
%TO.P,U8,1,A18*%
%TO.N,/A18*%
X83333332Y-60950000D03*
D11*
%TO.P,U8,2,A16*%
%TO.N,/A16*%
X83333332Y-63490000D03*
%TO.P,U8,3,A14*%
%TO.N,/A14*%
X83333332Y-66030000D03*
%TO.P,U8,4,A12*%
%TO.N,/A12*%
X83333332Y-68570000D03*
%TO.P,U8,5,A7*%
%TO.N,/A7*%
X83333332Y-71110000D03*
%TO.P,U8,6,A6*%
%TO.N,/A6*%
X83333332Y-73650000D03*
%TO.P,U8,7,A5*%
%TO.N,/A5*%
X83333332Y-76190000D03*
%TO.P,U8,8,A4*%
%TO.N,/A4*%
X83333332Y-78730000D03*
%TO.P,U8,9,A3*%
%TO.N,/A3*%
X83333332Y-81270000D03*
%TO.P,U8,10,A2*%
%TO.N,/A2*%
X83333332Y-83810000D03*
%TO.P,U8,11,A1*%
%TO.N,/A1*%
X83333332Y-86350000D03*
%TO.P,U8,12,A0*%
%TO.N,/A0*%
X83333332Y-88890000D03*
%TO.P,U8,13,D0*%
%TO.N,/D0*%
X83333332Y-91430000D03*
%TO.P,U8,14,D1*%
%TO.N,/D1*%
X83333332Y-93970000D03*
%TO.P,U8,15,D2*%
%TO.N,/D2*%
X83333332Y-96510000D03*
%TO.P,U8,16,GND*%
%TO.N,GND*%
X83333332Y-99050000D03*
%TO.P,U8,17,D3*%
%TO.N,/D3*%
X98573332Y-99050000D03*
%TO.P,U8,18,D4*%
%TO.N,/D4*%
X98573332Y-96510000D03*
%TO.P,U8,19,D5*%
%TO.N,/D5*%
X98573332Y-93970000D03*
%TO.P,U8,20,D6*%
%TO.N,/D6*%
X98573332Y-91430000D03*
%TO.P,U8,21,D7*%
%TO.N,/D7*%
X98573332Y-88890000D03*
%TO.P,U8,22,~{CS}*%
%TO.N,/CS_B*%
X98573332Y-86350000D03*
%TO.P,U8,23,A10*%
%TO.N,/A10*%
X98573332Y-83810000D03*
%TO.P,U8,24,~{OE}*%
%TO.N,/OE\u002A*%
X98573332Y-81270000D03*
%TO.P,U8,25,A11*%
%TO.N,/A11*%
X98573332Y-78730000D03*
%TO.P,U8,26,A9*%
%TO.N,/A9*%
X98573332Y-76190000D03*
%TO.P,U8,27,A8*%
%TO.N,/A8*%
X98573332Y-73650000D03*
%TO.P,U8,28,A13*%
%TO.N,/A13*%
X98573332Y-71110000D03*
%TO.P,U8,29,~{WE}*%
%TO.N,/WR\u002A*%
X98573332Y-68570000D03*
%TO.P,U8,30,A17*%
%TO.N,/A17*%
X98573332Y-66030000D03*
%TO.P,U8,31,A15*%
%TO.N,/A15*%
X98573332Y-63490000D03*
%TO.P,U8,32,VCC*%
%TO.N,VCC*%
X98573332Y-60950000D03*
%TD*%
%TO.P,C30,1*%
%TO.N,VCC*%
X69743332Y-54666668D03*
%TO.P,C30,2*%
%TO.N,GND*%
X64663332Y-54666668D03*
%TD*%
%TO.P,C22,1*%
%TO.N,VCC*%
X69243332Y-104666668D03*
%TO.P,C22,2*%
%TO.N,GND*%
X64163332Y-104666668D03*
%TD*%
D10*
%TO.P,U4,1,A18*%
%TO.N,/A18*%
X153090000Y-75660000D03*
D11*
%TO.P,U4,2,A16*%
%TO.N,/A16*%
X153090000Y-78200000D03*
%TO.P,U4,3,A14*%
%TO.N,/A14*%
X153090000Y-80740000D03*
%TO.P,U4,4,A12*%
%TO.N,/A12*%
X153090000Y-83280000D03*
%TO.P,U4,5,A7*%
%TO.N,/A7*%
X153090000Y-85820000D03*
%TO.P,U4,6,A6*%
%TO.N,/A6*%
X153090000Y-88360000D03*
%TO.P,U4,7,A5*%
%TO.N,/A5*%
X153090000Y-90900000D03*
%TO.P,U4,8,A4*%
%TO.N,/A4*%
X153090000Y-93440000D03*
%TO.P,U4,9,A3*%
%TO.N,/A3*%
X153090000Y-95980000D03*
%TO.P,U4,10,A2*%
%TO.N,/A2*%
X153090000Y-98520000D03*
%TO.P,U4,11,A1*%
%TO.N,/A1*%
X153090000Y-101060000D03*
%TO.P,U4,12,A0*%
%TO.N,/A0*%
X153090000Y-103600000D03*
%TO.P,U4,13,D0*%
%TO.N,/D0*%
X153090000Y-106140000D03*
%TO.P,U4,14,D1*%
%TO.N,/D1*%
X153090000Y-108680000D03*
%TO.P,U4,15,D2*%
%TO.N,/D2*%
X153090000Y-111220000D03*
%TO.P,U4,16,GND*%
%TO.N,GND*%
X153090000Y-113760000D03*
%TO.P,U4,17,D3*%
%TO.N,/D3*%
X168330000Y-113760000D03*
%TO.P,U4,18,D4*%
%TO.N,/D4*%
X168330000Y-111220000D03*
%TO.P,U4,19,D5*%
%TO.N,/D5*%
X168330000Y-108680000D03*
%TO.P,U4,20,D6*%
%TO.N,/D6*%
X168330000Y-106140000D03*
%TO.P,U4,21,D7*%
%TO.N,/D7*%
X168330000Y-103600000D03*
%TO.P,U4,22,~{CS}*%
%TO.N,/CS\u002A*%
X168330000Y-101060000D03*
%TO.P,U4,23,A10*%
%TO.N,/A10*%
X168330000Y-98520000D03*
%TO.P,U4,24,~{OE}*%
%TO.N,/OE\u002A*%
X168330000Y-95980000D03*
%TO.P,U4,25,A11*%
%TO.N,/A11*%
X168330000Y-93440000D03*
%TO.P,U4,26,A9*%
%TO.N,/A9*%
X168330000Y-90900000D03*
%TO.P,U4,27,A8*%
%TO.N,/A8*%
X168330000Y-88360000D03*
%TO.P,U4,28,A13*%
%TO.N,/A13*%
X168330000Y-85820000D03*
%TO.P,U4,29,~{WE}*%
%TO.N,/WR\u002A*%
X168330000Y-83280000D03*
%TO.P,U4,30,A17*%
%TO.N,/A17*%
X168330000Y-80740000D03*
%TO.P,U4,31,A15*%
%TO.N,/A15*%
X168330000Y-78200000D03*
%TO.P,U4,32,VCC*%
%TO.N,VCC*%
X168330000Y-75660000D03*
%TD*%
%TO.P,C15,1*%
%TO.N,VCC*%
X164750000Y-150015000D03*
%TO.P,C15,2*%
%TO.N,GND*%
X164750000Y-144935000D03*
%TD*%
D10*
%TO.P,U6,1,A18*%
%TO.N,/A18*%
X59041666Y-60950000D03*
D11*
%TO.P,U6,2,A16*%
%TO.N,/A16*%
X59041666Y-63490000D03*
%TO.P,U6,3,A14*%
%TO.N,/A14*%
X59041666Y-66030000D03*
%TO.P,U6,4,A12*%
%TO.N,/A12*%
X59041666Y-68570000D03*
%TO.P,U6,5,A7*%
%TO.N,/A7*%
X59041666Y-71110000D03*
%TO.P,U6,6,A6*%
%TO.N,/A6*%
X59041666Y-73650000D03*
%TO.P,U6,7,A5*%
%TO.N,/A5*%
X59041666Y-76190000D03*
%TO.P,U6,8,A4*%
%TO.N,/A4*%
X59041666Y-78730000D03*
%TO.P,U6,9,A3*%
%TO.N,/A3*%
X59041666Y-81270000D03*
%TO.P,U6,10,A2*%
%TO.N,/A2*%
X59041666Y-83810000D03*
%TO.P,U6,11,A1*%
%TO.N,/A1*%
X59041666Y-86350000D03*
%TO.P,U6,12,A0*%
%TO.N,/A0*%
X59041666Y-88890000D03*
%TO.P,U6,13,D0*%
%TO.N,/D0*%
X59041666Y-91430000D03*
%TO.P,U6,14,D1*%
%TO.N,/D1*%
X59041666Y-93970000D03*
%TO.P,U6,15,D2*%
%TO.N,/D2*%
X59041666Y-96510000D03*
%TO.P,U6,16,GND*%
%TO.N,GND*%
X59041666Y-99050000D03*
%TO.P,U6,17,D3*%
%TO.N,/D3*%
X74281666Y-99050000D03*
%TO.P,U6,18,D4*%
%TO.N,/D4*%
X74281666Y-96510000D03*
%TO.P,U6,19,D5*%
%TO.N,/D5*%
X74281666Y-93970000D03*
%TO.P,U6,20,D6*%
%TO.N,/D6*%
X74281666Y-91430000D03*
%TO.P,U6,21,D7*%
%TO.N,/D7*%
X74281666Y-88890000D03*
%TO.P,U6,22,~{CS}*%
%TO.N,/CS_E*%
X74281666Y-86350000D03*
%TO.P,U6,23,A10*%
%TO.N,/A10*%
X74281666Y-83810000D03*
%TO.P,U6,24,~{OE}*%
%TO.N,/OE\u002A*%
X74281666Y-81270000D03*
%TO.P,U6,25,A11*%
%TO.N,/A11*%
X74281666Y-78730000D03*
%TO.P,U6,26,A9*%
%TO.N,/A9*%
X74281666Y-76190000D03*
%TO.P,U6,27,A8*%
%TO.N,/A8*%
X74281666Y-73650000D03*
%TO.P,U6,28,A13*%
%TO.N,/A13*%
X74281666Y-71110000D03*
%TO.P,U6,29,~{WE}*%
%TO.N,/WR\u002A*%
X74281666Y-68570000D03*
%TO.P,U6,30,A17*%
%TO.N,/A17*%
X74281666Y-66030000D03*
%TO.P,U6,31,A15*%
%TO.N,/A15*%
X74281666Y-63490000D03*
%TO.P,U6,32,VCC*%
%TO.N,VCC*%
X74281666Y-60950000D03*
%TD*%
D10*
%TO.P,U11,1,A18*%
%TO.N,/A18*%
X83458332Y-111616667D03*
D11*
%TO.P,U11,2,A16*%
%TO.N,/A16*%
X83458332Y-114156667D03*
%TO.P,U11,3,A14*%
%TO.N,/A14*%
X83458332Y-116696667D03*
%TO.P,U11,4,A12*%
%TO.N,/A12*%
X83458332Y-119236667D03*
%TO.P,U11,5,A7*%
%TO.N,/A7*%
X83458332Y-121776667D03*
%TO.P,U11,6,A6*%
%TO.N,/A6*%
X83458332Y-124316667D03*
%TO.P,U11,7,A5*%
%TO.N,/A5*%
X83458332Y-126856667D03*
%TO.P,U11,8,A4*%
%TO.N,/A4*%
X83458332Y-129396667D03*
%TO.P,U11,9,A3*%
%TO.N,/A3*%
X83458332Y-131936667D03*
%TO.P,U11,10,A2*%
%TO.N,/A2*%
X83458332Y-134476667D03*
%TO.P,U11,11,A1*%
%TO.N,/A1*%
X83458332Y-137016667D03*
%TO.P,U11,12,A0*%
%TO.N,/A0*%
X83458332Y-139556667D03*
%TO.P,U11,13,D0*%
%TO.N,/D0*%
X83458332Y-142096667D03*
%TO.P,U11,14,D1*%
%TO.N,/D1*%
X83458332Y-144636667D03*
%TO.P,U11,15,D2*%
%TO.N,/D2*%
X83458332Y-147176667D03*
%TO.P,U11,16,GND*%
%TO.N,GND*%
X83458332Y-149716667D03*
%TO.P,U11,17,D3*%
%TO.N,/D3*%
X98698332Y-149716667D03*
%TO.P,U11,18,D4*%
%TO.N,/D4*%
X98698332Y-147176667D03*
%TO.P,U11,19,D5*%
%TO.N,/D5*%
X98698332Y-144636667D03*
%TO.P,U11,20,D6*%
%TO.N,/D6*%
X98698332Y-142096667D03*
%TO.P,U11,21,D7*%
%TO.N,/D7*%
X98698332Y-139556667D03*
%TO.P,U11,22,~{CS}*%
%TO.N,/CS_H*%
X98698332Y-137016667D03*
%TO.P,U11,23,A10*%
%TO.N,/A10*%
X98698332Y-134476667D03*
%TO.P,U11,24,~{OE}*%
%TO.N,/OE\u002A*%
X98698332Y-131936667D03*
%TO.P,U11,25,A11*%
%TO.N,/A11*%
X98698332Y-129396667D03*
%TO.P,U11,26,A9*%
%TO.N,/A9*%
X98698332Y-126856667D03*
%TO.P,U11,27,A8*%
%TO.N,/A8*%
X98698332Y-124316667D03*
%TO.P,U11,28,A13*%
%TO.N,/A13*%
X98698332Y-121776667D03*
%TO.P,U11,29,~{WE}*%
%TO.N,/WR\u002A*%
X98698332Y-119236667D03*
%TO.P,U11,30,A17*%
%TO.N,/A17*%
X98698332Y-116696667D03*
%TO.P,U11,31,A15*%
%TO.N,/A15*%
X98698332Y-114156667D03*
%TO.P,U11,32,VCC*%
%TO.N,VCC*%
X98698332Y-111616667D03*
%TD*%
%TO.P,C23,1*%
%TO.N,VCC*%
X93909998Y-104666668D03*
%TO.P,C23,2*%
%TO.N,GND*%
X88829998Y-104666668D03*
%TD*%
D12*
%TO.N,/A16*%
X124667033Y-115363650D03*
%TO.N,/A18*%
X119580000Y-111250000D03*
%TO.N,/CS_A*%
X54590000Y-104510000D03*
%TO.N,/CS_D*%
X120510000Y-100680000D03*
X115730000Y-113930000D03*
%TO.N,/CS_H*%
X103990000Y-150190000D03*
%TO.N,/CS_E*%
X80190000Y-104520000D03*
%TO.N,/CS_B*%
X105030000Y-101150000D03*
%TO.N,/A17*%
X140119209Y-82000000D03*
%TO.N,/D3*%
X140119209Y-110444915D03*
%TO.N,/D4*%
X140119209Y-108254243D03*
%TO.N,/D5*%
X140119209Y-106070000D03*
%TO.N,/D6*%
X140170000Y-103864274D03*
%TO.N,/D7*%
X140130000Y-101480000D03*
%TO.N,/A10*%
X140380000Y-99303100D03*
%TO.N,/OE\u002A*%
X140119209Y-97170000D03*
%TO.N,/A11*%
X140119209Y-94760000D03*
%TO.N,/A9*%
X140119209Y-92090000D03*
%TO.N,/A8*%
X140119209Y-89600000D03*
%TO.N,/A13*%
X140119209Y-87163482D03*
%TO.N,/WR\u002A*%
X140119209Y-84360000D03*
%TO.N,/A15*%
X140119209Y-79480000D03*
%TD*%
D13*
%TO.N,/A10*%
X123281666Y-83810000D02*
X138731666Y-99260000D01*
X138731666Y-99260000D02*
X152141711Y-99260000D01*
X152141711Y-99260000D02*
X152595511Y-99713800D01*
X152595511Y-99713800D02*
X167136200Y-99713800D01*
X167136200Y-99713800D02*
X168330000Y-98520000D01*
%TO.N,/D7*%
X123281666Y-88890000D02*
X135871666Y-101480000D01*
X166983800Y-102253800D02*
X168330000Y-103600000D01*
X135871666Y-101480000D02*
X151821711Y-101480000D01*
X151821711Y-101480000D02*
X152595511Y-102253800D01*
X152595511Y-102253800D02*
X166983800Y-102253800D01*
%TO.N,/D6*%
X166983800Y-104793800D02*
X168330000Y-106140000D01*
X135716440Y-103864774D02*
X123281666Y-91430000D01*
X152595511Y-104793800D02*
X166983800Y-104793800D01*
X140170000Y-103864274D02*
X140169500Y-103864774D01*
X151751711Y-103950000D02*
X152595511Y-104793800D01*
X140255726Y-103950000D02*
X151751711Y-103950000D01*
X140170000Y-103864274D02*
X140255726Y-103950000D01*
X140169500Y-103864774D02*
X135716440Y-103864774D01*
%TO.N,/D5*%
X123281666Y-93970000D02*
X135371666Y-106060000D01*
X135371666Y-106060000D02*
X141020000Y-106060000D01*
X141020000Y-106060000D02*
X142446200Y-107486200D01*
X142446200Y-107486200D02*
X167136200Y-107486200D01*
X167136200Y-107486200D02*
X168330000Y-108680000D01*
%TO.N,/D4*%
X123281666Y-96510000D02*
X135025409Y-108253743D01*
X135025409Y-108253743D02*
X140118709Y-108253743D01*
X140118709Y-108253743D02*
X141891166Y-110026200D01*
X141891166Y-110026200D02*
X167136200Y-110026200D01*
X167136200Y-110026200D02*
X168330000Y-111220000D01*
%TO.N,/OE\u002A*%
X123281666Y-81270000D02*
X139181666Y-97170000D01*
X139181666Y-97170000D02*
X140280000Y-97170000D01*
X140280000Y-97170000D02*
X140830000Y-96620000D01*
X140830000Y-96620000D02*
X152041711Y-96620000D01*
X152041711Y-96620000D02*
X152595511Y-97173800D01*
X152595511Y-97173800D02*
X167136200Y-97173800D01*
X167136200Y-97173800D02*
X168330000Y-95980000D01*
%TO.N,/CS_F*%
X146430000Y-151660000D02*
X146430000Y-153190000D01*
X50975466Y-139105466D02*
X50975466Y-139062178D01*
X146430000Y-153190000D02*
X145950000Y-153670000D01*
X145950000Y-153670000D02*
X61265043Y-153670000D01*
X50975466Y-139062178D02*
X50276155Y-138362867D01*
X50232867Y-138362867D02*
X49781666Y-137911666D01*
X61265043Y-153670000D02*
X53400000Y-145804957D01*
X53400000Y-145804957D02*
X53400000Y-141530000D01*
X53400000Y-141530000D02*
X50975466Y-139105466D01*
X50276155Y-138362867D02*
X50232867Y-138362867D01*
X49781666Y-137911666D02*
X49781666Y-137016667D01*
%TO.N,/CS_H*%
X103990000Y-150190000D02*
X103990000Y-142308335D01*
X103990000Y-142308335D02*
X98698332Y-137016667D01*
%TO.N,/A16*%
X124683383Y-115380000D02*
X124667033Y-115363650D01*
X128800000Y-115380000D02*
X124683383Y-115380000D01*
X128900000Y-115480000D02*
X128800000Y-115380000D01*
X156337106Y-130297106D02*
X140782894Y-130297106D01*
X158560000Y-132520000D02*
X156337106Y-130297106D01*
X140782894Y-130297106D02*
X128900000Y-118414212D01*
X128900000Y-118414212D02*
X128900000Y-115480000D01*
%TO.N,/A18*%
X119600000Y-115210000D02*
X119600000Y-111270000D01*
X139690000Y-134200000D02*
X139100000Y-133610000D01*
X128460467Y-122970467D02*
X122660467Y-122970467D01*
X150630000Y-134200000D02*
X139690000Y-134200000D01*
X153480000Y-132520000D02*
X151800000Y-134200000D01*
X151800000Y-134200000D02*
X150630000Y-134200000D01*
X139100000Y-133610000D02*
X128460467Y-122970467D01*
X119600000Y-111270000D02*
X119580000Y-111250000D01*
X122660467Y-122970467D02*
X119600000Y-119910000D01*
X119600000Y-119910000D02*
X119600000Y-115210000D01*
%TO.N,/A17*%
X156020000Y-132520000D02*
X154826200Y-131326200D01*
X140806200Y-131326200D02*
X126176667Y-116696667D01*
X154826200Y-131326200D02*
X140806200Y-131326200D01*
X126176667Y-116696667D02*
X123156666Y-116696667D01*
%TO.N,/CS_A*%
X109240148Y-112900148D02*
X100530148Y-112900148D01*
X156590000Y-144040000D02*
X154685000Y-142135000D01*
X57130000Y-107020000D02*
X54830000Y-104720000D01*
X154685000Y-142135000D02*
X135245000Y-142135000D01*
X135245000Y-142135000D02*
X132930000Y-139820000D01*
X99816644Y-112186644D02*
X99892132Y-112111156D01*
X96300000Y-107020000D02*
X82630000Y-107020000D01*
X110780000Y-123800000D02*
X110780000Y-114440000D01*
X54830000Y-104720000D02*
X54620000Y-104510000D01*
X99892132Y-112111156D02*
X99892132Y-110612132D01*
X54620000Y-104510000D02*
X54590000Y-104510000D01*
X99892132Y-110612132D02*
X96300000Y-107020000D01*
X110780000Y-114440000D02*
X109240148Y-112900148D01*
X117957133Y-130742867D02*
X117840000Y-130860000D01*
X117840000Y-130860000D02*
X110780000Y-123800000D01*
X82630000Y-107020000D02*
X57130000Y-107020000D01*
X123852867Y-130742867D02*
X117957133Y-130742867D01*
X100530148Y-112900148D02*
X99816644Y-112186644D01*
X132930000Y-139820000D02*
X123852867Y-130742867D01*
%TO.N,/CS_C*%
X146430000Y-144040000D02*
X145236200Y-142846200D01*
X128986199Y-142846200D02*
X123156666Y-137016667D01*
X145236200Y-142846200D02*
X128986199Y-142846200D01*
%TO.N,/CS_G*%
X124095422Y-150466200D02*
X121661622Y-152900000D01*
X121661622Y-152900000D02*
X82260000Y-152900000D01*
X147776200Y-150466200D02*
X124095422Y-150466200D01*
X148970000Y-151660000D02*
X147776200Y-150466200D01*
X82260000Y-152900000D02*
X82260000Y-145036668D01*
X82260000Y-145036668D02*
X74239999Y-137016667D01*
%TO.N,/CS_D*%
X121090000Y-101260000D02*
X120510000Y-100680000D01*
X121090000Y-104700000D02*
X121090000Y-101260000D01*
X115730000Y-113930000D02*
X115730000Y-110060000D01*
X115730000Y-110060000D02*
X121090000Y-104700000D01*
%TO.N,/A17*%
X168330000Y-80740000D02*
X167136200Y-81933800D01*
X167136200Y-81933800D02*
X138906200Y-81933800D01*
X138906200Y-81933800D02*
X138890000Y-81950000D01*
X138890000Y-81950000D02*
X138644212Y-81950000D01*
X138644212Y-81950000D02*
X123281666Y-66587454D01*
X123281666Y-66587454D02*
X123281666Y-66030000D01*
%TO.N,/D3*%
X140119209Y-110444915D02*
X142088094Y-112413800D01*
X166983800Y-112413800D02*
X168330000Y-113760000D01*
X142088094Y-112413800D02*
X166983800Y-112413800D01*
X140119209Y-110444915D02*
X134676581Y-110444915D01*
X134676581Y-110444915D02*
X123281666Y-99050000D01*
%TO.N,/A8*%
X123281666Y-73650000D02*
X127000000Y-73650000D01*
X127000000Y-73650000D02*
X135904600Y-82554600D01*
X135904600Y-82554600D02*
X135904600Y-86274600D01*
X135904600Y-86274600D02*
X139230000Y-89600000D01*
%TO.N,/A13*%
X123281666Y-71110000D02*
X125490000Y-71110000D01*
X125490000Y-71110000D02*
X136615800Y-82235800D01*
X136615800Y-82235800D02*
X136615800Y-84444134D01*
X136615800Y-84444134D02*
X139335148Y-87163482D01*
%TO.N,/WR\u002A*%
X123281666Y-68570000D02*
X124258424Y-68570000D01*
X124258424Y-68570000D02*
X137327000Y-81638576D01*
X137327000Y-81638576D02*
X137327000Y-82497000D01*
X137327000Y-82497000D02*
X139190000Y-84360000D01*
%TO.N,/A17*%
X51336200Y-64683800D02*
X72935466Y-64683800D01*
X121935466Y-64683800D02*
X123281666Y-66030000D01*
X98573332Y-66030000D02*
X99919532Y-64683800D01*
X74281666Y-66030000D02*
X75627866Y-64683800D01*
X49990000Y-66030000D02*
X51336200Y-64683800D01*
X99919532Y-64683800D02*
X121935466Y-64683800D01*
X97227132Y-64683800D02*
X98573332Y-66030000D01*
X75627866Y-64683800D02*
X97227132Y-64683800D01*
X72935466Y-64683800D02*
X74281666Y-66030000D01*
%TO.N,/D3*%
X75475466Y-97856200D02*
X97379532Y-97856200D01*
X121935466Y-97703800D02*
X123281666Y-99050000D01*
X99919532Y-97703800D02*
X121935466Y-97703800D01*
X74281666Y-99050000D02*
X75475466Y-97856200D01*
X49990000Y-99050000D02*
X51183800Y-97856200D01*
X73087866Y-97856200D02*
X74281666Y-99050000D01*
X97379532Y-97856200D02*
X98573332Y-99050000D01*
X98573332Y-99050000D02*
X99919532Y-97703800D01*
X51183800Y-97856200D02*
X73087866Y-97856200D01*
%TO.N,/D4*%
X74281666Y-96510000D02*
X75627866Y-95163800D01*
X75627866Y-95163800D02*
X97227132Y-95163800D01*
X97227132Y-95163800D02*
X98573332Y-96510000D01*
X73087866Y-95316200D02*
X74281666Y-96510000D01*
X99767132Y-95316200D02*
X122087866Y-95316200D01*
X98573332Y-96510000D02*
X99767132Y-95316200D01*
X51183800Y-95316200D02*
X73087866Y-95316200D01*
X49990000Y-96510000D02*
X51183800Y-95316200D01*
X122087866Y-95316200D02*
X123281666Y-96510000D01*
%TO.N,/D5*%
X98573332Y-93970000D02*
X99767132Y-92776200D01*
X49990000Y-93970000D02*
X51183800Y-92776200D01*
X97379532Y-92776200D02*
X98573332Y-93970000D01*
X122087866Y-92776200D02*
X123281666Y-93970000D01*
X73087866Y-92776200D02*
X74281666Y-93970000D01*
X74281666Y-93970000D02*
X75475466Y-92776200D01*
X51183800Y-92776200D02*
X73087866Y-92776200D01*
X75475466Y-92776200D02*
X97379532Y-92776200D01*
X99767132Y-92776200D02*
X122087866Y-92776200D01*
%TO.N,/D6*%
X99919532Y-90083800D02*
X121935466Y-90083800D01*
X51183800Y-90236200D02*
X73087866Y-90236200D01*
X74281666Y-91430000D02*
X75475466Y-90236200D01*
X121935466Y-90083800D02*
X123281666Y-91430000D01*
X98573332Y-91430000D02*
X99919532Y-90083800D01*
X49990000Y-91430000D02*
X51183800Y-90236200D01*
X73087866Y-90236200D02*
X74281666Y-91430000D01*
X75475466Y-90236200D02*
X97379532Y-90236200D01*
X97379532Y-90236200D02*
X98573332Y-91430000D01*
%TO.N,/D7*%
X49990000Y-88890000D02*
X51336200Y-87543800D01*
X72935466Y-87543800D02*
X74281666Y-88890000D01*
X99767132Y-87696200D02*
X122087866Y-87696200D01*
X75475466Y-87696200D02*
X97379532Y-87696200D01*
X51336200Y-87543800D02*
X72935466Y-87543800D01*
X122087866Y-87696200D02*
X123281666Y-88890000D01*
X98573332Y-88890000D02*
X99767132Y-87696200D01*
X97379532Y-87696200D02*
X98573332Y-88890000D01*
X74281666Y-88890000D02*
X75475466Y-87696200D01*
%TO.N,/A10*%
X51183800Y-82616200D02*
X73087866Y-82616200D01*
X49990000Y-83810000D02*
X51183800Y-82616200D01*
X97379532Y-82616200D02*
X98573332Y-83810000D01*
X122087866Y-82616200D02*
X123281666Y-83810000D01*
X73087866Y-82616200D02*
X74281666Y-83810000D01*
X75475466Y-82616200D02*
X97379532Y-82616200D01*
X74281666Y-83810000D02*
X75475466Y-82616200D01*
X99767132Y-82616200D02*
X122087866Y-82616200D01*
X98573332Y-83810000D02*
X99767132Y-82616200D01*
%TO.N,/OE\u002A*%
X98573332Y-81270000D02*
X99919532Y-79923800D01*
X51336200Y-79923800D02*
X72935466Y-79923800D01*
X74281666Y-81270000D02*
X75627866Y-79923800D01*
X72935466Y-79923800D02*
X74281666Y-81270000D01*
X121935466Y-79923800D02*
X123281666Y-81270000D01*
X75627866Y-79923800D02*
X97227132Y-79923800D01*
X97227132Y-79923800D02*
X98573332Y-81270000D01*
X49990000Y-81270000D02*
X51336200Y-79923800D01*
X99919532Y-79923800D02*
X121935466Y-79923800D01*
%TO.N,/A11*%
X72935466Y-77383800D02*
X74281666Y-78730000D01*
X99919532Y-77383800D02*
X121935466Y-77383800D01*
X49990000Y-78730000D02*
X51336200Y-77383800D01*
X74281666Y-78730000D02*
X75627866Y-77383800D01*
X75627866Y-77383800D02*
X97227132Y-77383800D01*
X51336200Y-77383800D02*
X72935466Y-77383800D01*
X98573332Y-78730000D02*
X99919532Y-77383800D01*
X139311666Y-94760000D02*
X167010000Y-94760000D01*
X167010000Y-94760000D02*
X168330000Y-93440000D01*
X97227132Y-77383800D02*
X98573332Y-78730000D01*
X123281666Y-78730000D02*
X139311666Y-94760000D01*
X121935466Y-77383800D02*
X123281666Y-78730000D01*
%TO.N,/A9*%
X123281666Y-76190000D02*
X139181666Y-92090000D01*
X139181666Y-92090000D02*
X140080000Y-92090000D01*
X99919532Y-74843800D02*
X121935466Y-74843800D01*
X72935466Y-74843800D02*
X74281666Y-76190000D01*
X49990000Y-76190000D02*
X51336200Y-74843800D01*
X75627866Y-74843800D02*
X97227132Y-74843800D01*
X121935466Y-74843800D02*
X123281666Y-76190000D01*
X140083800Y-92093800D02*
X167136200Y-92093800D01*
X98573332Y-76190000D02*
X99919532Y-74843800D01*
X74281666Y-76190000D02*
X75627866Y-74843800D01*
X140080000Y-92090000D02*
X140083800Y-92093800D01*
X51336200Y-74843800D02*
X72935466Y-74843800D01*
X167136200Y-92093800D02*
X168330000Y-90900000D01*
X97227132Y-74843800D02*
X98573332Y-76190000D01*
%TO.N,/A8*%
X99919532Y-72303800D02*
X121935466Y-72303800D01*
X74281666Y-73650000D02*
X75627866Y-72303800D01*
X167090000Y-89600000D02*
X168330000Y-88360000D01*
X121935466Y-72303800D02*
X123281666Y-73650000D01*
X51336200Y-72303800D02*
X72935466Y-72303800D01*
X139230000Y-89600000D02*
X167090000Y-89600000D01*
X72935466Y-72303800D02*
X74281666Y-73650000D01*
X97227132Y-72303800D02*
X98573332Y-73650000D01*
X49990000Y-73650000D02*
X51336200Y-72303800D01*
X75627866Y-72303800D02*
X97227132Y-72303800D01*
X98573332Y-73650000D02*
X99919532Y-72303800D01*
%TO.N,/A13*%
X121935466Y-69763800D02*
X123281666Y-71110000D01*
X98573332Y-71110000D02*
X99919532Y-69763800D01*
X99919532Y-69763800D02*
X121935466Y-69763800D01*
X75627866Y-69763800D02*
X97227132Y-69763800D01*
X74281666Y-71110000D02*
X75627866Y-69763800D01*
X97227132Y-69763800D02*
X98573332Y-71110000D01*
X139335148Y-87163482D02*
X166986518Y-87163482D01*
X73087866Y-69916200D02*
X74281666Y-71110000D01*
X49990000Y-71110000D02*
X51183800Y-69916200D01*
X166986518Y-87163482D02*
X168330000Y-85820000D01*
X51183800Y-69916200D02*
X73087866Y-69916200D01*
%TO.N,/WR\u002A*%
X75627866Y-67223800D02*
X97227132Y-67223800D01*
X139303800Y-84473800D02*
X167136200Y-84473800D01*
X99919532Y-67223800D02*
X121935466Y-67223800D01*
X49990000Y-68570000D02*
X51336200Y-67223800D01*
X167136200Y-84473800D02*
X168330000Y-83280000D01*
X74281666Y-68570000D02*
X75627866Y-67223800D01*
X98573332Y-68570000D02*
X99919532Y-67223800D01*
X97227132Y-67223800D02*
X98573332Y-68570000D01*
X121935466Y-67223800D02*
X123281666Y-68570000D01*
X51336200Y-67223800D02*
X72935466Y-67223800D01*
X72935466Y-67223800D02*
X74281666Y-68570000D01*
X139190000Y-84360000D02*
X139303800Y-84473800D01*
%TO.N,/A15*%
X74281666Y-63490000D02*
X75475466Y-62296200D01*
X97379532Y-62296200D02*
X98573332Y-63490000D01*
X124475466Y-65535511D02*
X124475466Y-66775466D01*
X51336200Y-62143800D02*
X72935466Y-62143800D01*
X72935466Y-62143800D02*
X74281666Y-63490000D01*
X123281666Y-63490000D02*
X123281666Y-64836200D01*
X121935466Y-62143800D02*
X123281666Y-63490000D01*
X137160000Y-79460000D02*
X167070000Y-79460000D01*
X123776155Y-64836200D02*
X124475466Y-65535511D01*
X98573332Y-63490000D02*
X99919532Y-62143800D01*
X167070000Y-79460000D02*
X168330000Y-78200000D01*
X124475466Y-66775466D02*
X137160000Y-79460000D01*
X123281666Y-64836200D02*
X123776155Y-64836200D01*
X49990000Y-63490000D02*
X51336200Y-62143800D01*
X75475466Y-62296200D02*
X97379532Y-62296200D01*
X99919532Y-62143800D02*
X121935466Y-62143800D01*
%TD*%
M02*
