(footprint "16dip300" (version 20211014) (generator pcbnew)
  (layer "F.Cu")
  (tedit 200000)
  (descr "Module Dil 16 pins, pads ronds")
  (tags "DIL")
  (attr through_hole)
  (fp_text reference "REF**" (at -6.35 -1.27) (layer "F.SilkS")
    (effects (font (size 1.524 1.143) (thickness 0.28702)))
    (tstamp f3296458-4ff1-4b0e-9907-fdb477abbc51)
  )
  (fp_text value "74LS165" (at 2.54 1.27) (layer "F.SilkS")
    (effects (font (size 1.524 1.143) (thickness 0.28702)))
    (tstamp ebdc6dd2-922b-4d99-82f8-94c164a70731)
  )
  (fp_line (start -11.43 -1.27) (end -11.43 -1.27) (layer "F.SilkS") (width 0.381) (tstamp 46bdde03-9c8b-46f9-98c5-21e1a583a5f0))
  (fp_line (start -11.43 2.54) (end -11.43 -2.54) (layer "F.SilkS") (width 0.381) (tstamp 46f5d96c-13f7-4a34-94c2-c52eff31f2ea))
  (fp_line (start -11.43 -1.27) (end -10.16 -1.27) (layer "F.SilkS") (width 0.381) (tstamp 47cb2709-a08b-4b00-8de3-0fb72b10f89e))
  (fp_line (start -11.43 -2.54) (end 11.43 -2.54) (layer "F.SilkS") (width 0.381) (tstamp a9b78e0b-6a5e-4df5-ad7f-414b84d9fa42))
  (fp_line (start 11.43 -2.54) (end 11.43 2.54) (layer "F.SilkS") (width 0.381) (tstamp b5e3c18b-a8b6-4cea-b7d5-ae21e0c47d5e))
  (fp_line (start -10.16 -1.27) (end -10.16 1.27) (layer "F.SilkS") (width 0.381) (tstamp d865b9b9-a6aa-4088-9107-ab5d555f5472))
  (fp_line (start -10.16 1.27) (end -11.43 1.27) (layer "F.SilkS") (width 0.381) (tstamp e5d6f77e-d967-4b42-8238-381f00130cd3))
  (fp_line (start 11.43 2.54) (end -11.43 2.54) (layer "F.SilkS") (width 0.381) (tstamp ea58ba0a-8897-476a-8936-a14205423e0c))
  (pad "1" thru_hole rect (at -8.89 3.81) (size 1.397 1.397) (drill 0.8128) (layers *.Cu *.Mask "F.SilkS") (tstamp 0c4ca193-eb50-45eb-b8ee-cecb793b2f3a))
  (pad "2" thru_hole circle (at -6.35 3.81) (size 1.397 1.397) (drill 0.8128) (layers *.Cu *.Mask "F.SilkS") (tstamp e6bd3ca4-ac01-4493-b5d0-20a4854d5ebc))
  (pad "3" thru_hole circle (at -3.81 3.81) (size 1.397 1.397) (drill 0.8128) (layers *.Cu *.Mask "F.SilkS") (tstamp 95205745-320e-43d4-9992-19442d85f120))
  (pad "4" thru_hole circle (at -1.27 3.81) (size 1.397 1.397) (drill 0.8128) (layers *.Cu *.Mask "F.SilkS") (tstamp 2d5ca1d9-b7be-4097-be6e-a3fd886779c4))
  (pad "5" thru_hole circle (at 1.27 3.81) (size 1.397 1.397) (drill 0.8128) (layers *.Cu *.Mask "F.SilkS") (tstamp ed09cb37-0acb-4a95-b3c8-e274c265250c))
  (pad "6" thru_hole circle (at 3.81 3.81) (size 1.397 1.397) (drill 0.8128) (layers *.Cu *.Mask "F.SilkS") (tstamp c565548a-5633-4bed-85ba-cbe5b71ee620))
  (pad "7" thru_hole circle (at 6.35 3.81) (size 1.397 1.397) (drill 0.8128) (layers *.Cu *.Mask "F.SilkS") (tstamp b477aff8-6419-4ace-97e6-77d1bdf71af7))
  (pad "8" thru_hole circle (at 8.89 3.81) (size 1.397 1.397) (drill 0.8128) (layers *.Cu *.Mask "F.SilkS") (tstamp 9393f88b-d415-4933-9f1a-89c5146aed26))
  (pad "9" thru_hole circle (at 8.89 -3.81) (size 1.397 1.397) (drill 0.8128) (layers *.Cu *.Mask "F.SilkS") (tstamp 2c399a9d-e095-4dac-8d95-c1f20ef317d1))
  (pad "10" thru_hole circle (at 6.35 -3.81) (size 1.397 1.397) (drill 0.8128) (layers *.Cu *.Mask "F.SilkS") (tstamp 17d04c05-91d8-443e-be7d-0a95dce17f6b))
  (pad "11" thru_hole circle (at 3.81 -3.81) (size 1.397 1.397) (drill 0.8128) (layers *.Cu *.Mask "F.SilkS") (tstamp 02b1d5e2-b877-4673-bdfe-cc345c3e9535))
  (pad "12" thru_hole circle (at 1.27 -3.81) (size 1.397 1.397) (drill 0.8128) (layers *.Cu *.Mask "F.SilkS") (tstamp b52c7036-b7b4-4094-880e-665e2e102c1c))
  (pad "13" thru_hole circle (at -1.27 -3.81) (size 1.397 1.397) (drill 0.8128) (layers *.Cu *.Mask "F.SilkS") (tstamp 8974c8ff-ed8a-47df-913d-c422f8bf2b57))
  (pad "14" thru_hole circle (at -3.81 -3.81) (size 1.397 1.397) (drill 0.8128) (layers *.Cu *.Mask "F.SilkS") (tstamp e7c02b97-4ae2-4350-9ce3-68e89cc70b8b))
  (pad "15" thru_hole circle (at -6.35 -3.81) (size 1.397 1.397) (drill 0.8128) (layers *.Cu *.Mask "F.SilkS") (tstamp ffacbe7b-99f8-40a0-bcb9-dd32671d930a))
  (pad "16" thru_hole circle (at -8.89 -3.81) (size 1.397 1.397) (drill 0.8128) (layers *.Cu *.Mask "F.SilkS") (tstamp 8bcf6b52-7565-4252-b20b-158b5324af82))
  (model "dil/dil_16.wrl"
    (offset (xyz 0 0 0))
    (scale (xyz 1 1 1))
    (rotate (xyz 0 0 0))
  )
)
