(footprint "20dip300" (version 20211014) (generator pcbnew)
  (layer "F.Cu")
  (tedit 200000)
  (descr "Module Dil 20 pins, pads ronds")
  (tags "DIL")
  (attr through_hole)
  (fp_text reference "REF**" (at -8.89 -1.27) (layer "F.SilkS")
    (effects (font (size 1.778 1.143) (thickness 0.28702)))
    (tstamp d6d71a4a-9844-4dbb-87ca-05085b76d510)
  )
  (fp_text value "74LS682N" (at 6.35 1.27) (layer "F.SilkS")
    (effects (font (size 1.778 1.143) (thickness 0.28702)))
    (tstamp 4446484e-e0cc-40f6-a14d-a8160d6ecdae)
  )
  (fp_line (start 13.97 2.54) (end -13.97 2.54) (layer "F.SilkS") (width 0.381) (tstamp 258a5727-f220-4cd3-98ba-8048690b8e15))
  (fp_line (start -12.7 -1.27) (end -12.7 1.27) (layer "F.SilkS") (width 0.381) (tstamp 3b386f67-cd16-4fc9-ac0a-b55195dfcf8e))
  (fp_line (start -13.97 2.54) (end -13.97 -2.54) (layer "F.SilkS") (width 0.381) (tstamp 912b9fa8-c41f-4cf7-9785-a9beefcf5ed3))
  (fp_line (start -13.97 -2.54) (end 13.97 -2.54) (layer "F.SilkS") (width 0.381) (tstamp a4f41ee8-7dd5-42b5-a26f-a2b5cf7311c7))
  (fp_line (start -12.7 1.27) (end -13.97 1.27) (layer "F.SilkS") (width 0.381) (tstamp ac5c92a4-ce42-4eb5-8a0b-c35ab0e6d063))
  (fp_line (start -13.97 -1.27) (end -12.7 -1.27) (layer "F.SilkS") (width 0.381) (tstamp eb5147c7-1fc8-4f16-affe-a7ca30db5d1c))
  (fp_line (start 13.97 -2.54) (end 13.97 2.54) (layer "F.SilkS") (width 0.381) (tstamp ff4b5ef7-e221-4260-a3b4-d53d7c05e5be))
  (pad "1" thru_hole rect (at -11.43 3.81) (size 1.397 1.397) (drill 0.8128) (layers *.Cu *.Mask "F.SilkS") (tstamp 1c7b4a6a-a4eb-4cdb-b262-08a6590254b5))
  (pad "2" thru_hole circle (at -8.89 3.81) (size 1.397 1.397) (drill 0.8128) (layers *.Cu *.Mask "F.SilkS") (tstamp c86498ce-81cb-4629-959f-cb1569a30f51))
  (pad "3" thru_hole circle (at -6.35 3.81) (size 1.397 1.397) (drill 0.8128) (layers *.Cu *.Mask "F.SilkS") (tstamp 242efe29-2ee7-4b8c-96b7-14c963614281))
  (pad "4" thru_hole circle (at -3.81 3.81) (size 1.397 1.397) (drill 0.8128) (layers *.Cu *.Mask "F.SilkS") (tstamp 62289075-994a-4427-90d2-be88f2b7d2a1))
  (pad "5" thru_hole circle (at -1.27 3.81) (size 1.397 1.397) (drill 0.8128) (layers *.Cu *.Mask "F.SilkS") (tstamp 10ed580c-c5e3-4326-a996-947326be99e4))
  (pad "6" thru_hole circle (at 1.27 3.81) (size 1.397 1.397) (drill 0.8128) (layers *.Cu *.Mask "F.SilkS") (tstamp 2a184b4a-7da8-483a-9f66-96be1254997d))
  (pad "7" thru_hole circle (at 3.81 3.81) (size 1.397 1.397) (drill 0.8128) (layers *.Cu *.Mask "F.SilkS") (tstamp b32e218f-9c0f-4e32-b4b9-22fa9e6ba858))
  (pad "8" thru_hole circle (at 6.35 3.81) (size 1.397 1.397) (drill 0.8128) (layers *.Cu *.Mask "F.SilkS") (tstamp 7e33f37c-cb08-4fde-9d8a-374edb64db31))
  (pad "9" thru_hole circle (at 8.89 3.81) (size 1.397 1.397) (drill 0.8128) (layers *.Cu *.Mask "F.SilkS") (tstamp 4239104b-d072-4f20-b941-fc6a12f8b4e4))
  (pad "10" thru_hole circle (at 11.43 3.81) (size 1.397 1.397) (drill 0.8128) (layers *.Cu *.Mask "F.SilkS") (tstamp f68c9384-ee6f-491a-9f11-406f6ed736b2))
  (pad "11" thru_hole circle (at 11.43 -3.81) (size 1.397 1.397) (drill 0.8128) (layers *.Cu *.Mask "F.SilkS") (tstamp 741e9e3b-35c0-4bea-b677-4f3a2ea44512))
  (pad "12" thru_hole circle (at 8.89 -3.81) (size 1.397 1.397) (drill 0.8128) (layers *.Cu *.Mask "F.SilkS") (tstamp ce200df8-6918-406b-a4cd-b8cb10e9a418))
  (pad "13" thru_hole circle (at 6.35 -3.81) (size 1.397 1.397) (drill 0.8128) (layers *.Cu *.Mask "F.SilkS") (tstamp 0a45c7e4-8984-49b1-a57b-8a3f311e8a86))
  (pad "14" thru_hole circle (at 3.81 -3.81) (size 1.397 1.397) (drill 0.8128) (layers *.Cu *.Mask "F.SilkS") (tstamp bc365edb-da05-4643-baca-9652a8df38f8))
  (pad "15" thru_hole circle (at 1.27 -3.81) (size 1.397 1.397) (drill 0.8128) (layers *.Cu *.Mask "F.SilkS") (tstamp 9e7d8ce9-d4de-41d7-a462-28187a1d05f4))
  (pad "16" thru_hole circle (at -1.27 -3.81) (size 1.397 1.397) (drill 0.8128) (layers *.Cu *.Mask "F.SilkS") (tstamp affebd83-4c03-44d8-86ec-3cb7ac7aa7dd))
  (pad "17" thru_hole circle (at -3.81 -3.81) (size 1.397 1.397) (drill 0.8128) (layers *.Cu *.Mask "F.SilkS") (tstamp 459590a9-2c2b-4a67-8045-6000f086e076))
  (pad "18" thru_hole circle (at -6.35 -3.81) (size 1.397 1.397) (drill 0.8128) (layers *.Cu *.Mask "F.SilkS") (tstamp b3e5b37b-b04c-4d61-8842-9b0d1a31bb36))
  (pad "19" thru_hole circle (at -8.89 -3.81) (size 1.397 1.397) (drill 0.8128) (layers *.Cu *.Mask "F.SilkS") (tstamp cdacd101-7337-44fe-b231-645b7dfd1433))
  (pad "20" thru_hole circle (at -11.43 -3.81) (size 1.397 1.397) (drill 0.8128) (layers *.Cu *.Mask "F.SilkS") (tstamp f1ee1027-9891-4abf-bb7a-8ec390ec9070))
  (model "dil/dil_20.wrl"
    (offset (xyz 0 0 0))
    (scale (xyz 1 1 1))
    (rotate (xyz 0 0 0))
  )
)
